"vat_fraud";"ins_crime";"bribery";"crime_wrong";"gender";"age";"vat_crime";"edu"
1;0;0;1;"Women";35;"0";"Tertiary"
2;0;0;2;"Women";30;"0";"Secondary"
2;0;0;2;"Men";59;"1";"Primary"
1;0;0;1;"Women";25;"0";"Secondary"
3;1;1;5;"Men";57;"1";"Primary"
2;1;1;4;"Men";27;"1";"Tertiary"
2;2;3;7;"Women";48;"0";"Secondary"
2;2;0;4;"Men";33;"1";"Secondary"
3;0;2;5;"Men";65;"1";"Primary"
NA;1;NA;NA;"Women";15;"0";"Primary"
1;1;1;3;"Women";48;"1";"Secondary"
0;1;0;1;"Men";21;"0";"Secondary"
2;0;0;2;"Men";71;"1";"Secondary"
1;0;1;2;"Men";24;"0";"Secondary"
0;0;0;0;"Men";44;"0";"Tertiary"
2;1;1;4;"Women";56;"0";"Tertiary"
1;0;0;1;"Men";45;"0";"Secondary"
2;0;0;2;"Women";65;"1";"Tertiary"
2;0;0;2;"Men";50;"1";"Secondary"
0;0;0;0;"Men";34;"1";"Secondary"
2;1;1;4;"Women";44;"0";"Tertiary"
2;0;1;3;"Women";61;NA;"Secondary"
2;0;1;3;"Men";30;"1";"Secondary"
0;0;0;0;"Women";23;"0";"Secondary"
1;1;1;3;"Women";51;"0";"Secondary"
2;0;0;2;"Women";48;"1";"Secondary"
1;0;0;1;"Women";53;"0";"Secondary"
2;0;0;2;"Women";61;"0";"Secondary"
1;1;1;3;"Women";89;"0";"Primary"
2;0;0;2;"Men";27;"0";"Tertiary"
1;0;0;1;"Men";24;"0";"Secondary"
3;1;0;4;"Men";33;"0";"Secondary"
1;1;0;2;"Men";66;"1";"Primary"
1;1;1;3;"Women";54;"0";"Secondary"
1;0;0;1;"Women";23;"0";"Secondary"
0;1;0;1;"Men";87;"0";"Primary"
0;0;0;0;"Women";62;"0";"Secondary"
1;1;0;2;"Men";78;"1";"Primary"
0;0;0;0;"Women";68;"0";"Primary"
0;0;0;0;"Women";37;"0";"Tertiary"
1;1;0;2;"Men";53;"0";"Secondary"
1;0;2;3;"Women";19;"1";"Secondary"
1;0;0;1;"Men";41;"1";"Secondary"
1;1;1;3;"Men";41;"0";"Secondary"
1;1;0;2;"Men";66;"0";"Secondary"
2;0;0;2;"Women";37;"0";"Secondary"
0;0;0;0;"Women";36;"0";"Tertiary"
1;0;0;1;"Women";72;"1";"Tertiary"
3;0;0;3;"Men";43;"0";"Secondary"
2;1;1;4;"Women";38;"0";"Secondary"
2;0;1;3;"Men";26;"1";"Secondary"
2;0;2;4;"Men";28;"1";"Tertiary"
0;0;0;0;"Women";81;"0";"Primary"
1;1;0;2;"Men";25;"0";"Secondary"
1;0;0;1;"Women";50;"1";"Tertiary"
1;0;1;2;"Men";52;"0";"Secondary"
0;0;0;0;"Women";55;"0";"Primary"
1;1;1;3;"Women";56;"0";"Secondary"
0;0;0;0;"Men";49;"1";"Secondary"
NA;1;0;NA;"Men";71;"0";"Primary"
2;0;0;2;"Men";16;"0";"Secondary"
1;0;1;2;"Women";84;"0";"Primary"
0;1;1;2;"Women";76;"0";"Primary"
1;0;0;1;"Women";28;"0";"Tertiary"
2;1;2;5;"Women";40;"1";"Secondary"
0;2;0;2;"Women";26;"0";"Tertiary"
2;0;0;2;"Women";38;"0";"Tertiary"
1;0;1;2;"Men";18;"0";"Secondary"
1;0;0;1;"Women";52;"0";"Secondary"
1;0;0;1;"Men";46;"0";"Tertiary"
0;0;0;0;"Men";53;"1";"Secondary"
1;1;0;2;"Men";33;"0";"Tertiary"
1;1;1;3;"Women";24;"0";"Secondary"
1;0;0;1;"Men";63;"0";"Tertiary"
3;0;0;3;"Men";58;"0";"Secondary"
0;0;0;0;"Men";40;"0";"Secondary"
1;1;0;2;"Men";18;"1";"Secondary"
1;1;1;3;"Women";18;"0";"Secondary"
2;0;0;2;"Men";62;"1";"Primary"
0;1;0;1;"Women";89;"0";"Primary"
1;1;0;2;"Men";24;"0";"Secondary"
1;1;0;2;"Men";33;"0";"Secondary"
1;2;1;4;"Men";28;"0";"Secondary"
2;0;0;2;"Women";51;"1";"Secondary"
2;0;0;2;"Men";60;"1";"Tertiary"
2;1;1;4;"Women";23;"0";"Secondary"
1;2;1;4;"Men";41;"0";"Secondary"
0;0;0;0;"Men";26;"0";"Secondary"
1;1;1;3;"Men";25;"0";"Secondary"
0;0;0;0;"Women";53;"0";"Secondary"
2;0;0;2;"Women";54;"0";"Tertiary"
2;1;1;4;"Men";44;"0";"Secondary"
2;1;0;3;"Men";22;"0";"Secondary"
1;1;1;3;"Women";35;"0";"Tertiary"
1;0;0;1;"Men";55;"0";"Secondary"
0;0;0;0;"Men";36;"0";"Secondary"
2;1;1;4;"Women";56;"0";"Secondary"
1;1;0;2;"Women";42;"1";"Tertiary"
2;1;0;3;"Women";57;"0";"Primary"
2;1;1;4;"Men";85;"1";"Secondary"
1;1;0;2;"Women";82;"0";"Secondary"
1;0;0;1;"Women";34;"0";"Tertiary"
2;0;0;2;"Men";35;"1";"Secondary"
1;0;0;1;"Men";65;"0";"Primary"
0;0;0;0;"Men";41;"0";"Primary"
2;0;0;2;"Women";25;"0";"Secondary"
3;1;1;5;"Men";31;"1";"Secondary"
0;0;0;0;"Men";51;"0";"Secondary"
0;0;0;0;"Men";64;"0";"Tertiary"
1;0;0;1;"Women";62;"0";"Tertiary"
1;1;1;3;"Men";40;"1";"Secondary"
1;0;1;2;"Women";72;"0";"Primary"
1;1;1;3;"Men";87;"0";"Tertiary"
0;0;0;0;"Women";56;"0";"Primary"
3;1;0;4;"Women";23;"0";"Secondary"
3;1;0;4;"Women";55;"1";"Tertiary"
2;0;0;2;"Men";46;"1";"Secondary"
2;1;0;3;"Men";48;"1";"Secondary"
0;0;0;0;"Women";48;"0";"Tertiary"
1;1;1;3;"Women";26;"0";"Tertiary"
1;1;1;3;"Women";68;"1";"Tertiary"
2;1;1;4;"Men";16;"0";"Primary"
2;0;0;2;"Women";62;"1";"Secondary"
0;1;0;1;"Men";27;"0";"Tertiary"
1;0;0;1;"Men";49;"0";"Tertiary"
1;0;0;1;"Women";16;"0";"Primary"
0;0;0;0;"Women";43;"0";"Secondary"
1;0;0;1;"Men";72;"1";"Secondary"
2;0;0;2;"Women";18;"1";"Secondary"
2;0;0;2;"Women";67;"1";"Secondary"
2;1;1;4;"Men";62;"0";"Primary"
2;2;0;4;"Women";27;"0";"Tertiary"
1;1;1;3;"Women";44;"0";"Secondary"
1;0;2;3;"Women";22;"0";"Secondary"
0;0;0;0;"Women";83;"0";"Primary"
1;0;0;1;"Women";42;"0";"Secondary"
0;0;0;0;"Women";51;"0";"Secondary"
2;0;0;2;"Men";57;"1";"Secondary"
1;0;0;1;"Women";24;"0";"Tertiary"
0;0;0;0;"Men";16;"0";"Primary"
1;1;1;3;"Men";55;"1";"Tertiary"
2;0;0;2;"Men";61;"1";"Secondary"
2;1;0;3;"Women";22;"0";"Secondary"
1;1;1;3;"Women";53;"0";"Primary"
1;0;0;1;"Men";49;"0";"Secondary"
1;1;1;3;"Women";32;"0";"Tertiary"
1;1;1;3;"Women";16;"0";"Secondary"
1;1;1;3;"Men";79;"0";"Primary"
0;0;0;0;"Women";47;"0";"Secondary"
2;0;0;2;"Men";25;"1";"Secondary"
1;1;0;2;"Women";47;"0";"Secondary"
2;0;0;2;"Men";59;"1";"Secondary"
0;0;0;0;"Women";41;"0";"Tertiary"
1;2;0;3;"Women";32;"0";"Tertiary"
2;1;0;3;"Men";18;"0";"Secondary"
2;0;0;2;"Men";59;"1";"Secondary"
3;1;1;5;"Women";31;"0";"Secondary"
2;2;0;4;"Men";30;"1";"Tertiary"
2;2;1;5;"Men";22;"0";"Secondary"
1;0;0;1;"Women";45;"0";"Secondary"
0;0;0;0;"Women";52;"0";"Tertiary"
1;1;0;2;"Men";34;"1";"Secondary"
1;1;0;2;"Men";42;"0";"Secondary"
2;1;1;4;"Men";29;"1";"Tertiary"
1;0;0;1;"Men";61;"1";"Secondary"
1;0;0;1;"Men";52;"0";"Tertiary"
2;1;0;3;"Men";45;"0";"Secondary"
0;0;0;0;"Men";53;"0";"Secondary"
1;0;2;3;"Men";19;"0";"Secondary"
2;1;0;3;"Women";17;"0";"Secondary"
1;1;1;3;"Women";19;"0";"Secondary"
0;0;0;0;"Men";22;"0";"Secondary"
3;1;1;5;"Women";36;"0";"Secondary"
2;0;0;2;"Men";54;"1";"Tertiary"
0;0;0;0;"Men";69;"0";"Tertiary"
1;0;0;1;"Men";24;"1";"Secondary"
1;1;1;3;"Men";28;"0";"Secondary"
2;0;0;2;"Men";33;"1";"Secondary"
0;0;0;0;"Women";46;"1";"Secondary"
2;1;1;4;"Women";82;"1";"Primary"
2;1;0;3;"Women";67;"0";"Primary"
1;0;0;1;"Women";59;"0";"Secondary"
2;1;0;3;"Women";45;"0";"Secondary"
1;1;0;2;"Men";43;"0";"Secondary"
2;1;0;3;"Women";47;"0";"Secondary"
2;1;0;3;"Men";21;"0";"Secondary"
0;0;0;0;"Men";36;"0";"Secondary"
2;0;0;2;"Women";47;"0";"Secondary"
2;0;0;2;"Women";65;"0";"Tertiary"
1;0;1;2;"Women";72;"0";"Primary"
1;0;0;1;"Men";60;"1";"Tertiary"
1;1;0;2;"Women";41;"0";"Secondary"
2;0;0;2;"Men";38;"1";"Secondary"
2;0;1;3;"Women";71;"0";"Tertiary"
0;0;0;0;"Men";43;"0";"Tertiary"
2;1;0;3;"Men";16;"0";"Secondary"
0;0;0;0;"Men";76;"0";"Primary"
2;0;0;2;"Women";49;"0";"Secondary"
1;0;0;1;"Women";66;"0";"Secondary"
2;0;0;2;"Men";49;"1";"Secondary"
2;2;0;4;"Men";32;"1";"Secondary"
1;0;0;1;"Women";61;"0";"Secondary"
0;0;0;0;"Women";46;"0";"Secondary"
0;0;0;0;"Men";56;"0";"Secondary"
1;0;0;1;"Men";60;"0";"Secondary"
3;1;1;5;"Men";61;"0";"Primary"
0;0;2;2;"Men";59;"0";"Primary"
0;0;0;0;"Women";79;"0";"Primary"
2;1;1;4;"Men";78;"1";"Secondary"
1;0;0;1;"Men";49;"1";"Secondary"
2;0;2;4;"Women";81;"0";"Primary"
2;1;0;3;"Women";39;"1";"Secondary"
1;0;0;1;"Men";29;"0";"Tertiary"
2;0;0;2;"Women";45;"0";"Secondary"
1;0;0;1;"Men";47;"1";"Primary"
0;0;0;0;"Men";68;"1";"Primary"
1;1;0;2;"Men";71;"0";"Primary"
0;0;0;0;"Women";32;"0";"Secondary"
0;0;0;0;"Men";76;"0";"Secondary"
2;0;0;2;"Women";22;"1";"Secondary"
0;0;0;0;"Women";64;"1";"Secondary"
1;0;0;1;"Men";34;"1";"Secondary"
1;1;0;2;"Men";43;"1";"Secondary"
1;1;1;3;"Women";37;"0";"Secondary"
1;0;0;1;"Women";72;"0";"Primary"
1;0;1;2;"Women";67;"0";"Primary"
1;1;1;3;"Men";45;"0";"Tertiary"
0;0;0;0;"Men";46;"0";"Secondary"
0;0;0;0;"Men";71;"0";"Secondary"
1;1;0;2;"Men";51;"0";"Tertiary"
1;1;0;2;"Women";54;"0";"Tertiary"
2;1;1;4;"Women";17;"0";"Secondary"
1;1;1;3;"Men";61;"0";"Secondary"
1;0;1;2;"Women";34;"0";"Secondary"
1;0;0;1;"Women";58;"0";"Primary"
2;0;0;2;"Women";36;"0";"Secondary"
2;1;0;3;"Men";36;"1";"Secondary"
2;0;0;2;"Women";71;"0";"Primary"
2;1;1;4;"Men";30;"0";"Secondary"
1;1;1;3;"Women";53;"0";"Secondary"
0;0;0;0;"Men";75;"0";"Secondary"
2;0;1;3;"Men";29;"1";"Secondary"
1;1;1;3;"Men";34;"1";"Secondary"
0;0;0;0;"Men";58;"0";"Tertiary"
2;1;0;3;"Women";21;"1";"Secondary"
1;1;2;4;"Men";24;"0";"Secondary"
NA;NA;NA;NA;"Women";90;NA;"Primary"
0;0;0;0;"Men";68;"0";"Primary"
1;0;0;1;"Women";19;"1";"Secondary"
2;2;0;4;"Women";52;"0";"Tertiary"
2;0;0;2;"Women";36;"0";"Secondary"
1;0;1;2;"Men";96;"0";"Tertiary"
0;0;0;0;"Men";27;"0";"Tertiary"
NA;0;0;NA;"Men";70;"1";"Secondary"
2;0;1;3;"Men";30;"1";"Secondary"
0;0;0;0;"Men";35;"0";"Secondary"
0;0;0;0;"Men";51;"0";"Tertiary"
2;0;0;2;"Men";32;"0";"Tertiary"
1;1;1;3;"Women";79;"1";"Secondary"
2;0;0;2;"Women";66;"0";"Secondary"
1;0;0;1;"Men";32;"0";"Tertiary"
2;0;0;2;"Women";65;"1";"Primary"
2;0;0;2;"Men";63;"1";"Primary"
1;1;0;2;"Men";66;"1";"Secondary"
0;1;0;1;"Women";76;"0";"Primary"
0;0;0;0;"Men";28;"0";"Secondary"
2;1;1;4;"Women";51;"0";"Tertiary"
1;2;0;3;"Women";33;"1";"Tertiary"
1;1;0;2;"Men";29;"0";"Secondary"
1;0;0;1;"Men";56;"1";"Tertiary"
0;0;0;0;"Men";36;"1";"Secondary"
0;0;0;0;"Men";19;"0";"Secondary"
1;1;0;2;"Women";50;"0";"Secondary"
2;0;0;2;"Men";75;"0";"Primary"
0;0;0;0;"Women";58;"0";"Tertiary"
1;1;0;2;"Men";42;"0";"Tertiary"
1;0;0;1;"Women";56;"0";"Secondary"
2;1;1;4;"Women";33;"0";"Tertiary"
2;1;0;3;"Women";45;"1";"Tertiary"
2;1;0;3;"Women";82;"0";"Primary"
3;0;2;5;"Women";43;"0";"Tertiary"
2;0;0;2;"Women";56;"1";"Secondary"
1;0;0;1;"Women";50;"0";"Secondary"
0;1;1;2;"Women";71;"0";"Primary"
0;0;0;0;"Women";67;"0";"Secondary"
1;0;0;1;"Men";45;"1";"Secondary"
1;1;1;3;"Women";53;"0";"Secondary"
0;0;0;0;"Women";62;"0";"Primary"
2;2;0;4;"Women";41;"1";"Tertiary"
0;1;0;1;"Women";68;"0";"Secondary"
1;0;0;1;"Women";51;"0";"Secondary"
0;1;0;1;"Women";26;"0";"Secondary"
3;1;1;5;"Women";20;"1";"Secondary"
1;0;0;1;"Men";72;"0";"Secondary"
2;2;0;4;"Women";22;"1";"Secondary"
1;0;0;1;"Men";63;"1";"Secondary"
0;0;0;0;"Women";71;"0";"Primary"
1;1;0;2;"Women";58;"0";"Tertiary"
2;1;0;3;"Women";64;"1";"Secondary"
2;0;0;2;"Men";75;"1";"Secondary"
2;0;0;2;"Women";65;"0";"Primary"
2;1;0;3;"Men";36;"1";"Secondary"
0;0;0;0;"Women";23;"0";"Secondary"
1;0;0;1;"Men";48;"0";"Secondary"
0;0;0;0;"Women";73;"0";"Primary"
2;0;0;2;"Women";51;"1";"Secondary"
2;0;1;3;"Women";29;"0";"Secondary"
0;0;0;0;"Women";67;"0";"Primary"
2;0;0;2;"Men";30;"1";"Secondary"
0;0;0;0;"Men";33;"0";"Tertiary"
1;0;0;1;"Men";61;"0";"Tertiary"
1;0;1;2;"Men";55;"0";"Secondary"
0;0;0;0;"Women";28;"0";"Tertiary"
1;0;1;2;"Men";16;"0";"Secondary"
1;0;0;1;"Men";36;"1";"Secondary"
1;1;0;2;"Men";59;"0";"Primary"
2;0;0;2;"Men";86;"1";"Primary"
2;0;2;4;"Women";78;"0";"Secondary"
1;1;1;3;"Women";45;"0";"Secondary"
1;0;0;1;"Men";84;"0";"Tertiary"
2;0;1;3;"Women";15;"0";"Primary"
2;1;0;3;"Men";43;"0";"Secondary"
2;0;0;2;"Women";15;"0";"Primary"
1;1;1;3;"Women";28;"0";"Secondary"
3;1;2;6;"Women";23;"0";"Secondary"
2;0;0;2;"Women";62;"1";"Primary"
1;1;1;3;"Men";24;"0";"Secondary"
0;0;0;0;"Women";56;"0";"Secondary"
0;0;0;0;"Men";66;"0";"Primary"
3;0;1;4;"Women";51;"0";"Secondary"
3;1;1;5;"Men";18;"1";"Secondary"
1;1;0;2;"Men";33;"1";"Secondary"
1;1;0;2;"Women";61;"0";"Secondary"
0;0;0;0;"Women";32;"0";"Tertiary"
1;0;0;1;"Men";46;"0";"Secondary"
1;0;0;1;"Women";55;"1";"Secondary"
0;0;0;0;"Men";55;"0";"Tertiary"
0;1;0;1;"Men";43;"0";"Secondary"
1;1;0;2;"Women";63;"0";"Secondary"
1;0;0;1;"Women";56;"1";"Primary"
2;0;2;4;"Women";23;"0";"Secondary"
2;0;0;2;"Women";76;"0";"Secondary"
2;2;1;5;"Men";43;"0";"Secondary"
1;1;0;2;"Women";24;"0";"Secondary"
0;0;0;0;"Women";59;"0";"Secondary"
2;2;0;4;"Men";47;"0";"Secondary"
0;0;0;0;"Men";83;"0";"Primary"
1;0;1;2;"Women";35;"0";"Secondary"
2;0;0;2;"Women";52;"1";"Secondary"
1;0;0;1;"Men";33;"1";"Secondary"
1;1;0;2;"Men";66;"0";"Primary"
1;0;0;1;"Women";43;"1";"Secondary"
0;0;0;0;"Men";62;"0";"Primary"
1;0;0;1;"Men";26;"1";"Secondary"
1;0;0;1;"Women";45;"1";"Secondary"
2;0;0;2;"Women";64;"1";"Tertiary"
2;1;1;4;"Men";73;"1";"Secondary"
2;0;0;2;"Women";61;"0";"Secondary"
1;0;0;1;"Men";40;"0";"Secondary"
2;1;1;4;"Women";19;"0";"Secondary"
0;0;0;0;"Women";24;"1";"Secondary"
2;0;0;2;"Men";70;"1";"Primary"
1;0;0;1;"Men";35;"1";"Secondary"
2;1;0;3;"Men";45;"0";"Secondary"
0;0;0;0;"Men";44;"1";"Tertiary"
1;0;0;1;"Men";37;"1";"Tertiary"
3;2;3;8;"Men";25;"1";"Tertiary"
1;1;1;3;"Men";43;"1";"Secondary"
0;0;0;0;"Women";77;"0";"Primary"
1;1;0;2;"Men";24;"0";"Secondary"
2;0;0;2;"Men";59;"1";"Secondary"
2;1;1;4;"Women";25;"0";"Tertiary"
1;1;0;2;"Women";45;"0";"Secondary"
0;0;1;1;"Men";61;"0";"Primary"
2;0;0;2;"Men";23;"0";"Secondary"
1;0;0;1;"Women";35;"0";"Secondary"
1;0;0;1;"Women";77;"0";"Secondary"
1;0;0;1;"Men";57;"1";"Tertiary"
1;0;0;1;"Women";57;"0";"Tertiary"
0;0;1;1;"Men";68;"0";"Secondary"
1;1;1;3;"Men";39;"0";"Secondary"
2;0;1;3;"Men";38;"0";"Secondary"
2;1;0;3;"Men";47;"1";"Secondary"
1;1;1;3;"Women";39;"0";"Secondary"
1;0;0;1;"Women";85;"0";"Primary"
1;1;1;3;"Men";41;"1";"Tertiary"
1;1;1;3;"Women";32;"1";"Tertiary"
2;0;0;2;"Men";37;"0";"Tertiary"
0;0;0;0;"Men";65;"0";"Secondary"
2;1;NA;NA;"Women";18;"0";"Secondary"
0;0;0;0;"Women";61;"0";"Secondary"
2;1;0;3;"Men";31;"1";"Secondary"
1;0;0;1;"Men";43;"1";"Secondary"
1;1;0;2;"Men";29;"0";"Tertiary"
1;1;0;2;"Women";25;"0";"Secondary"
0;0;0;0;"Men";48;"1";"Tertiary"
0;0;0;0;"Women";65;"0";"Primary"
2;1;1;4;"Women";50;"0";"Tertiary"
2;0;0;2;"Men";58;"1";"Secondary"
1;2;0;3;"Women";23;"0";"Tertiary"
1;1;0;2;"Men";53;"0";"Tertiary"
2;1;0;3;"Men";45;"0";"Secondary"
1;1;1;3;"Women";64;"0";"Secondary"
1;1;1;3;"Men";50;"0";"Secondary"
1;1;0;2;"Women";28;"0";"Secondary"
2;1;1;4;"Men";26;"0";"Tertiary"
2;0;0;2;"Men";34;"1";"Secondary"
2;1;0;3;"Women";48;"1";"Tertiary"
1;0;0;1;"Women";22;"0";"Secondary"
1;0;0;1;"Men";59;"1";"Primary"
1;0;0;1;"Women";43;"0";"Secondary"
2;0;0;2;"Women";15;"0";"Primary"
0;0;0;0;"Women";30;"0";"Secondary"
2;0;0;2;"Women";41;"0";"Secondary"
0;0;0;0;"Women";48;"0";"Secondary"
0;0;0;0;"Women";74;"0";"Secondary"
0;0;0;0;"Men";73;"0";"Secondary"
1;1;1;3;"Men";55;"0";"Tertiary"
2;0;1;3;"Men";39;"0";"Secondary"
0;0;0;0;"Men";57;"0";"Secondary"
0;1;1;2;"Women";28;"0";"Tertiary"
1;0;0;1;"Women";35;"0";"Tertiary"
0;0;0;0;"Men";65;"0";"Secondary"
0;0;0;0;"Men";24;"0";"Secondary"
1;0;0;1;"Men";81;"0";"Secondary"
2;0;0;2;"Men";42;"1";"Secondary"
1;1;0;2;"Women";30;"0";"Secondary"
2;0;0;2;"Men";71;"0";"Secondary"
2;1;0;3;"Men";17;"0";"Secondary"
0;0;0;0;"Women";42;"0";"Secondary"
2;0;NA;NA;"Women";65;"0";"Secondary"
0;0;0;0;"Men";62;"1";"Tertiary"
1;0;0;1;"Women";59;"1";"Primary"
2;0;0;2;"Men";57;"0";"Secondary"
1;1;1;3;"Men";37;"0";"Secondary"
1;1;1;3;"Men";52;"1";"Tertiary"
0;0;0;0;"Women";37;"0";"Secondary"
2;1;1;4;"Women";60;"1";"Secondary"
1;0;0;1;"Women";50;"0";"Secondary"
2;0;0;2;"Women";70;"1";"Secondary"
1;0;1;2;"Men";66;"0";"Secondary"
0;0;0;0;"Men";84;"0";"Primary"
2;0;0;2;"Women";34;"1";"Secondary"
2;0;0;2;"Women";50;"0";"Tertiary"
2;0;0;2;"Men";32;"0";"Secondary"
3;2;1;6;"Men";40;"1";"Secondary"
0;0;0;0;"Men";31;"0";"Secondary"
2;0;0;2;"Women";36;"1";"Secondary"
0;1;0;1;"Men";70;"0";"Primary"
0;0;0;0;"Men";59;"0";"Secondary"
1;0;0;1;"Women";62;"0";"Primary"
2;1;1;4;"Women";31;"1";"Secondary"
1;1;1;3;"Women";46;"0";"Secondary"
1;0;0;1;"Men";36;"0";"Secondary"
1;0;0;1;"Women";28;"1";"Tertiary"
3;2;1;6;"Men";26;"1";"Secondary"
2;0;1;3;"Women";82;"0";"Secondary"
2;1;0;3;"Men";50;"1";"Secondary"
1;2;0;3;"Men";22;"0";"Secondary"
1;0;0;1;"Men";84;NA;"Primary"
1;0;0;1;"Men";46;"1";"Secondary"
0;0;0;0;"Women";78;"0";"Primary"
1;0;0;1;"Women";49;"0";"Tertiary"
2;0;0;2;"Men";55;"0";"Primary"
2;1;0;3;"Men";27;"0";"Secondary"
0;0;0;0;"Women";64;"0";"Primary"
3;0;0;3;"Women";65;"1";"Tertiary"
0;0;0;0;"Women";54;"0";"Secondary"
1;0;0;1;"Women";64;"0";"Tertiary"
2;1;0;3;"Women";25;"0";"Secondary"
0;0;0;0;"Men";73;"0";"Tertiary"
1;0;0;1;"Women";55;"1";"Tertiary"
1;1;1;3;"Men";58;"1";"Secondary"
0;0;0;0;"Women";38;"0";"Tertiary"
3;1;0;4;"Women";60;"1";"Primary"
1;0;0;1;"Women";40;"0";"Secondary"
2;0;0;2;"Women";37;"1";"Secondary"
1;0;0;1;"Men";66;"1";"Secondary"
0;0;0;0;"Women";79;NA;"Primary"
2;1;0;3;"Men";31;"1";"Secondary"
2;0;0;2;"Women";25;"0";"Tertiary"
2;0;0;2;"Women";48;"1";"Secondary"
0;0;0;0;"Women";75;"0";"Primary"
1;0;0;1;"Women";52;"0";"Secondary"
1;2;0;3;"Men";29;"0";"Secondary"
3;0;0;3;"Women";87;"0";"Primary"
2;1;0;3;"Women";43;"1";"Secondary"
1;1;0;2;"Women";55;"0";"Secondary"
0;0;0;0;"Men";80;"0";"Primary"
2;2;1;5;"Women";72;"0";"Primary"
1;0;0;1;"Women";56;"0";"Secondary"
1;0;0;1;"Men";60;"0";"Secondary"
2;1;0;3;"Women";25;"0";"Secondary"
2;0;2;4;"Women";42;"0";"Secondary"
0;0;0;0;"Women";55;"0";"Primary"
0;0;0;0;"Men";71;"0";"Primary"
2;0;0;2;"Women";77;"1";"Tertiary"
1;1;0;2;"Men";86;"0";"Secondary"
2;1;1;4;"Men";20;"0";"Secondary"
0;0;0;0;"Men";68;"0";"Tertiary"
0;0;0;0;"Women";61;"0";"Secondary"
1;0;1;2;"Women";83;"0";"Primary"
1;0;0;1;"Men";54;"1";"Tertiary"
2;2;0;4;"Men";16;"0";"Secondary"
0;0;0;0;"Women";58;"0";"Tertiary"
1;1;1;3;"Men";61;"0";"Secondary"
1;1;1;3;"Men";43;"0";"Secondary"
3;2;2;7;"Men";22;"1";"Secondary"
NA;NA;NA;NA;"Men";99;NA;"Primary"
0;0;0;0;"Men";48;NA;"Primary"
0;0;0;0;"Women";94;"0";"Primary"
1;1;1;3;"Women";49;"0";"Secondary"
2;0;0;2;"Men";33;"1";"Tertiary"
3;0;0;3;"Men";17;"0";"Secondary"
0;1;1;2;"Women";37;"0";"Secondary"
0;0;0;0;"Women";20;"0";"Secondary"
2;0;0;2;"Women";56;"0";"Tertiary"
2;0;2;4;"Women";56;"0";"Secondary"
2;0;0;2;"Women";52;"1";"Tertiary"
3;0;0;3;"Men";31;"0";"Tertiary"
0;0;0;0;"Women";35;"0";"Secondary"
1;1;0;2;"Men";15;"0";"Primary"
2;1;0;3;"Men";54;"1";"Tertiary"
2;0;0;2;"Men";20;"0";"Secondary"
2;1;1;4;"Women";64;"1";"Tertiary"
1;0;0;1;"Men";64;"0";"Primary"
1;1;0;2;"Men";26;"0";"Secondary"
3;0;3;6;"Women";43;"0";"Secondary"
1;0;0;1;"Women";44;"1";"Secondary"
2;0;0;2;"Men";69;"0";"Primary"
2;0;0;2;"Women";25;"1";"Tertiary"
3;0;0;3;"Women";39;"1";"Tertiary"
0;0;0;0;"Men";63;"0";"Tertiary"
0;0;0;0;"Women";79;"0";"Tertiary"
2;1;0;3;"Men";61;"0";"Primary"
0;0;0;0;"Women";25;"0";"Tertiary"
2;1;0;3;"Women";54;"0";"Secondary"
2;2;1;5;"Women";25;"0";"Secondary"
2;0;0;2;"Women";28;"1";"Tertiary"
1;1;1;3;"Women";18;"0";"Secondary"
2;0;0;2;"Women";54;"1";"Tertiary"
2;0;0;2;"Men";77;"1";"Primary"
1;0;0;1;"Men";52;"1";"Tertiary"
1;0;0;1;"Women";45;"0";"Secondary"
1;0;0;1;"Women";63;"0";"Secondary"
2;2;0;4;"Men";18;"0";"Secondary"
3;0;0;3;"Men";31;"1";"Secondary"
1;0;1;2;"Men";87;"0";"Primary"
2;0;0;2;"Men";54;"1";"Tertiary"
0;0;0;0;"Men";74;"1";"Tertiary"
2;0;0;2;"Men";34;"1";"Secondary"
0;0;0;0;"Women";24;"0";"Tertiary"
0;0;0;0;"Women";26;"0";"Secondary"
0;0;0;0;"Women";64;"0";"Secondary"
0;0;0;0;"Men";70;"0";"Secondary"
2;0;0;2;"Women";58;"0";"Secondary"
1;0;1;2;"Women";18;"0";"Secondary"
2;1;1;4;"Men";62;"1";"Primary"
1;1;0;2;"Men";21;"0";"Secondary"
1;1;0;2;"Women";24;"0";"Secondary"
0;0;0;0;"Women";84;"0";"Primary"
2;0;NA;NA;"Men";20;"0";"Secondary"
2;0;0;2;"Women";21;"0";"Secondary"
2;0;0;2;"Men";35;"0";"Secondary"
2;0;0;2;"Women";37;"1";"Tertiary"
2;0;0;2;"Men";71;"1";"Secondary"
NA;0;0;NA;"Women";40;"0";"Secondary"
NA;NA;NA;NA;"Women";15;NA;"Primary"
0;0;0;0;"Men";67;"0";"Secondary"
3;1;1;5;"Women";63;"1";"Tertiary"
1;1;0;2;"Men";80;"0";"Primary"
1;0;0;1;"Women";52;"0";"Secondary"
1;0;0;1;"Women";27;"0";"Tertiary"
0;0;0;0;"Men";78;"0";"Primary"
1;1;0;2;"Women";32;"0";"Secondary"
1;1;1;3;"Men";64;"0";"Primary"
0;0;0;0;"Women";60;"0";"Secondary"
NA;0;0;NA;"Women";91;"0";"Primary"
1;0;1;2;"Women";57;"0";"Secondary"
2;1;1;4;"Women";26;"0";"Secondary"
0;0;0;0;"Men";30;"1";"Tertiary"
1;0;0;1;"Women";77;"0";"Secondary"
2;0;0;2;"Women";29;"1";"Secondary"
1;0;1;2;"Men";26;"0";"Tertiary"
2;0;0;2;"Men";19;"0";"Secondary"
1;0;0;1;"Men";32;"0";"Secondary"
NA;NA;NA;NA;"Men";70;NA;"Primary"
0;1;0;1;"Men";28;"0";"Tertiary"
2;0;0;2;"Men";74;"0";"Secondary"
1;0;0;1;"Men";33;"1";"Secondary"
1;1;1;3;"Women";75;"0";"Primary"
1;0;0;1;"Women";17;"0";"Secondary"
1;1;0;2;"Men";40;"0";"Secondary"
1;0;0;1;"Women";66;"0";"Secondary"
0;0;0;0;"Women";58;"0";"Secondary"
1;1;1;3;"Women";40;"0";"Secondary"
2;1;0;3;"Men";51;"0";"Secondary"
1;1;1;3;"Women";36;"0";"Secondary"
2;0;2;4;"Men";36;"1";"Secondary"
0;0;0;0;"Women";82;"0";"Tertiary"
1;0;0;1;"Women";69;"0";"Secondary"
1;0;1;2;"Men";58;"1";"Tertiary"
0;0;0;0;"Men";21;"1";"Secondary"
1;0;0;1;"Women";43;"0";"Secondary"
0;0;0;0;"Women";54;"0";"Tertiary"
0;1;1;2;"Women";56;"0";"Secondary"
1;0;0;1;"Men";35;"1";"Secondary"
1;1;0;2;"Men";52;"0";"Secondary"
1;0;0;1;"Men";33;"1";"Tertiary"
0;0;0;0;"Women";40;"0";"Secondary"
2;0;0;2;"Women";58;"0";"Primary"
0;0;0;0;"Women";56;"0";"Secondary"
2;0;0;2;"Men";48;"1";"Secondary"
0;1;1;2;"Men";72;"0";"Primary"
2;2;0;4;"Men";27;"0";"Secondary"
1;0;0;1;"Men";47;"1";"Secondary"
0;0;0;0;"Women";40;"0";"Secondary"
1;0;0;1;"Men";54;"1";"Secondary"
1;0;0;1;"Men";55;"1";"Tertiary"
0;0;0;0;"Women";18;"1";"Secondary"
1;1;1;3;"Men";53;"1";"Tertiary"
0;1;0;1;"Men";38;"0";"Tertiary"
0;0;0;0;"Women";43;"0";"Secondary"
1;0;0;1;"Women";19;"0";"Secondary"
1;0;0;1;"Men";21;"0";"Secondary"
1;1;1;3;"Men";78;"1";NA
1;0;0;1;"Men";52;"0";"Secondary"
0;0;0;0;"Women";89;"0";"Primary"
2;2;0;4;"Women";20;"0";"Secondary"
1;0;0;1;"Men";49;"0";"Tertiary"
1;0;0;1;"Men";47;"0";"Secondary"
0;0;0;0;"Women";38;"0";"Tertiary"
0;0;0;0;"Women";37;"0";"Secondary"
1;0;0;1;"Women";37;"0";"Tertiary"
1;0;0;1;"Men";28;"1";"Secondary"
1;1;0;2;"Men";38;"0";"Tertiary"
1;1;0;2;"Women";51;"0";"Primary"
2;0;0;2;"Men";42;"1";"Secondary"
1;0;0;1;"Men";40;"1";"Secondary"
1;1;0;2;"Men";21;"0";"Secondary"
2;0;0;2;"Women";30;"1";"Secondary"
1;0;0;1;"Women";77;"0";"Primary"
2;1;1;4;"Women";70;"0";"Secondary"
2;1;0;3;"Women";19;"0";"Secondary"
0;0;0;0;"Men";62;"0";"Secondary"
2;1;0;3;"Women";29;"0";"Secondary"
2;1;0;3;"Men";49;"1";"Secondary"
0;0;0;0;"Women";49;"0";"Tertiary"
2;0;0;2;"Women";42;"1";"Secondary"
0;0;0;0;"Men";77;"0";"Tertiary"
1;1;1;3;"Women";67;"0";"Primary"
2;0;0;2;"Men";70;"0";"Primary"
1;1;0;2;"Women";32;"0";"Tertiary"
1;1;0;2;"Women";84;"0";"Secondary"
2;1;0;3;"Men";79;"0";"Secondary"
0;0;0;0;"Women";60;"0";"Secondary"
2;0;0;2;"Women";38;"0";"Secondary"
1;0;0;1;"Women";27;"0";"Primary"
1;1;0;2;"Women";33;"1";"Secondary"
2;0;0;2;"Men";27;"0";"Secondary"
1;1;0;2;"Women";51;"0";"Tertiary"
2;0;0;2;"Men";16;"1";"Secondary"
1;1;0;2;"Men";39;"0";"Secondary"
0;0;0;0;"Men";19;"0";"Secondary"
0;0;0;0;"Men";60;"0";"Secondary"
1;0;0;1;"Men";58;"1";"Secondary"
0;0;0;0;"Women";86;"0";"Primary"
2;1;0;3;"Women";47;"1";"Tertiary"
1;1;0;2;"Men";23;"0";"Tertiary"
2;1;1;4;"Men";39;"1";"Tertiary"
0;0;0;0;"Men";75;NA;"Secondary"
2;1;0;3;"Men";34;"0";"Tertiary"
1;1;0;2;"Men";47;"1";"Secondary"
2;0;0;2;"Women";84;"0";"Secondary"
1;0;0;1;"Men";58;"0";"Tertiary"
1;0;0;1;"Women";46;"1";"Tertiary"
1;0;1;2;"Women";39;"0";"Secondary"
1;1;0;2;"Men";16;"0";"Secondary"
2;0;0;2;"Men";47;"1";"Secondary"
1;1;1;3;"Men";34;"0";"Secondary"
1;1;0;2;"Women";33;"0";"Secondary"
2;0;0;2;"Men";39;"1";"Tertiary"
2;0;0;2;"Men";45;"1";"Secondary"
2;0;0;2;"Women";18;"0";"Secondary"
1;1;1;3;"Women";32;"0";"Secondary"
2;0;0;2;"Men";39;"0";"Secondary"
2;1;1;4;"Men";25;"1";"Tertiary"
2;0;0;2;"Women";51;"1";"Tertiary"
1;1;0;2;"Women";48;"0";"Tertiary"
1;1;0;2;"Men";58;"1";"Primary"
0;0;0;0;"Women";19;"0";"Secondary"
0;1;1;2;"Women";30;"0";"Secondary"
1;1;0;2;"Men";38;"0";"Secondary"
2;1;1;4;"Men";42;"1";"Secondary"
0;0;0;0;"Women";76;"0";"Secondary"
2;0;0;2;"Men";47;"1";"Secondary"
1;1;1;3;"Men";72;"0";"Secondary"
0;0;0;0;"Men";18;"0";"Secondary"
2;1;0;3;"Women";55;"0";"Secondary"
2;0;0;2;"Men";45;"0";"Secondary"
1;0;0;1;"Women";68;"0";"Secondary"
2;1;1;4;"Men";36;"1";"Secondary"
0;0;0;0;"Men";49;"0";"Primary"
2;0;0;2;"Men";28;"0";"Secondary"
0;0;0;0;"Women";58;"0";"Tertiary"
1;0;0;1;"Women";19;"0";"Secondary"
1;1;1;3;"Women";59;"0";"Secondary"
1;0;0;1;"Men";69;"1";"Secondary"
1;1;1;3;"Men";17;"0";"Secondary"
0;0;0;0;"Men";28;"0";"Secondary"
1;0;0;1;"Women";40;"1";"Tertiary"
2;0;0;2;"Women";15;"0";"Primary"
1;1;0;2;"Men";43;"0";"Tertiary"
1;0;0;1;"Men";23;"1";"Secondary"
2;1;0;3;"Men";54;"1";"Secondary"
1;1;1;3;"Men";56;"1";"Secondary"
1;0;1;2;"Women";81;"0";"Secondary"
2;0;1;3;"Men";46;"1";"Secondary"
1;0;1;2;"Women";31;"1";"Secondary"
1;0;0;1;"Women";29;"1";"Tertiary"
1;1;1;3;"Men";42;"0";"Tertiary"
1;1;1;3;"Women";74;"0";"Primary"
0;0;0;0;"Women";25;"0";"Tertiary"
2;1;1;4;"Men";50;"1";"Secondary"
1;1;1;3;"Men";46;"0";"Secondary"
2;1;0;3;"Men";28;"0";"Secondary"
0;0;0;0;"Women";75;"0";"Primary"
1;1;0;2;"Men";38;"1";"Secondary"
2;1;0;3;"Women";70;"1";"Tertiary"
3;1;2;6;"Men";16;"1";"Secondary"
2;1;1;4;"Men";42;"0";"Secondary"
1;0;0;1;"Women";72;"0";"Tertiary"
1;0;0;1;"Women";72;"0";"Primary"
1;0;0;1;"Men";68;"0";"Secondary"
1;0;0;1;"Women";54;"0";"Secondary"
1;0;0;1;"Women";59;"0";"Primary"
1;0;0;1;"Men";25;"0";"Secondary"
1;0;0;1;"Women";48;"0";"Tertiary"
0;0;0;0;"Women";59;"0";"Primary"
2;0;0;2;"Women";55;"0";"Tertiary"
1;1;1;3;"Men";64;"1";"Secondary"
1;0;0;1;"Men";48;"1";"Secondary"
2;0;0;2;"Men";53;"1";"Secondary"
0;0;0;0;"Women";39;"0";"Secondary"
0;0;0;0;"Women";27;"1";"Tertiary"
2;0;1;3;"Women";56;"0";"Secondary"
2;0;0;2;"Men";61;"1";"Tertiary"
0;0;0;0;"Women";27;"0";"Tertiary"
1;0;0;1;"Women";19;"0";"Secondary"
1;0;0;1;"Women";63;"0";"Tertiary"
2;1;0;3;"Women";52;"0";"Secondary"
2;0;1;3;"Women";58;"1";"Secondary"
2;1;1;4;"Men";36;"0";"Secondary"
2;0;0;2;"Women";51;"1";"Tertiary"
1;1;0;2;"Men";18;"0";"Secondary"
1;1;0;2;"Men";16;"1";"Secondary"
1;1;0;2;"Women";34;"1";"Secondary"
1;0;0;1;"Men";26;"0";"Secondary"
2;0;1;3;"Men";61;"0";"Tertiary"
0;0;0;0;"Women";76;"0";"Secondary"
3;1;2;6;"Men";36;"1";"Secondary"
0;0;0;0;"Women";42;"0";"Secondary"
2;1;0;3;"Men";57;"1";"Secondary"
0;1;0;1;"Women";26;"0";"Tertiary"
1;1;1;3;"Women";39;"0";"Secondary"
2;2;1;5;"Men";47;"1";"Secondary"
0;0;1;1;"Men";69;"0";"Primary"
3;1;0;4;"Men";59;"0";"Primary"
0;1;0;1;"Women";17;"0";"Secondary"
1;1;1;3;"Men";68;"0";"Secondary"
1;0;0;1;"Women";34;"0";"Secondary"
0;0;1;1;"Women";54;"0";"Secondary"
2;0;0;2;"Men";16;"0";"Secondary"
0;0;0;0;"Women";47;"0";"Tertiary"
2;0;0;2;"Women";46;"1";"Secondary"
2;1;2;5;"Women";17;"0";"Secondary"
2;0;0;2;"Women";39;"0";"Tertiary"
1;1;1;3;"Men";50;"0";"Secondary"
0;0;0;0;"Women";83;"0";"Primary"
0;0;0;0;"Women";67;"0";"Primary"
1;0;0;1;"Women";64;"1";"Tertiary"
2;2;0;4;"Men";22;"0";"Secondary"
2;0;0;2;"Men";58;"0";"Secondary"
2;1;0;3;"Men";50;"1";"Secondary"
0;0;0;0;"Men";56;"0";"Secondary"
1;0;0;1;"Men";50;"0";"Tertiary"
1;0;0;1;"Men";45;"1";"Secondary"
2;0;0;2;"Women";60;"1";"Secondary"
2;0;0;2;"Women";86;"0";"Primary"
1;1;1;3;"Men";39;"0";"Secondary"
0;0;1;1;"Women";53;"0";"Secondary"
1;0;0;1;"Women";80;"0";"Secondary"
0;0;0;0;"Women";49;"0";"Secondary"
2;0;0;2;"Men";61;"1";"Primary"
2;0;0;2;"Women";35;"1";"Tertiary"
2;1;1;4;"Men";22;"1";"Secondary"
2;1;0;3;"Women";50;"0";"Tertiary"
2;0;0;2;"Women";21;"0";"Secondary"
0;1;1;2;"Men";52;"0";"Secondary"
1;1;0;2;"Men";31;"0";"Tertiary"
0;0;0;0;"Women";27;"1";"Secondary"
0;0;0;0;"Men";44;"0";"Secondary"
2;0;0;2;"Men";60;"0";"Secondary"
0;0;0;0;"Women";72;"1";"Tertiary"
2;1;0;3;"Women";57;"1";"Tertiary"
1;0;1;2;"Women";15;"0";"Primary"
3;2;0;5;"Women";59;"0";"Secondary"
0;0;0;0;"Men";78;"0";"Secondary"
1;1;1;3;"Women";71;"0";"Primary"
1;1;1;3;"Women";45;"0";"Secondary"
0;0;0;0;"Men";67;"0";"Secondary"
1;0;0;1;"Women";63;"0";"Secondary"
2;0;0;2;"Women";45;"0";"Secondary"
2;1;1;4;"Women";38;"0";"Secondary"
2;0;0;2;"Men";35;"1";"Secondary"
1;0;0;1;"Women";39;"1";"Secondary"
2;1;0;3;"Women";24;"0";"Secondary"
1;1;0;2;"Men";23;"0";"Secondary"
0;1;0;1;"Women";84;"0";"Primary"
1;1;1;3;"Women";37;"0";"Tertiary"
1;1;0;2;"Men";33;"0";"Secondary"
1;0;0;1;"Men";47;"0";"Secondary"
2;0;0;2;"Women";23;"1";"Secondary"
2;2;1;5;"Women";15;"0";"Secondary"
1;0;0;1;"Women";22;"0";"Secondary"
2;0;0;2;"Men";70;"0";"Secondary"
1;0;0;1;"Women";56;"0";"Tertiary"
2;1;1;4;"Men";64;"0";"Primary"
2;1;0;3;"Women";36;"0";"Tertiary"
0;0;0;0;"Men";60;"0";"Secondary"
2;1;1;4;"Men";29;"1";"Secondary"
1;1;1;3;"Men";56;"0";"Primary"
1;0;0;1;"Men";34;"0";"Tertiary"
1;1;1;3;"Women";24;"0";"Secondary"
1;1;1;3;"Women";33;"0";"Secondary"
3;1;1;5;"Men";52;"1";"Secondary"
2;0;0;2;"Men";24;"0";"Secondary"
2;0;0;2;"Women";55;"0";"Secondary"
2;1;1;4;"Women";21;"0";"Secondary"
1;1;1;3;"Men";38;"1";"Secondary"
2;2;1;5;"Men";54;"1";"Primary"
1;0;0;1;"Men";60;"1";"Tertiary"
0;0;0;0;"Women";72;"0";"Primary"
1;0;0;1;"Men";67;"1";"Primary"
2;1;0;3;"Men";45;"1";"Secondary"
1;1;0;2;"Women";50;"0";"Tertiary"
0;0;0;0;"Women";74;"0";NA
0;0;0;0;"Women";19;"0";"Secondary"
1;0;0;1;"Women";38;"0";"Secondary"
1;1;1;3;"Men";16;"0";"Secondary"
0;0;0;0;"Women";24;"0";"Secondary"
1;0;0;1;"Women";67;"1";"Primary"
2;1;0;3;"Women";21;"0";"Secondary"
1;0;0;1;"Women";63;"0";"Secondary"
0;0;0;0;"Men";58;"0";"Secondary"
0;0;0;0;"Women";62;"0";"Secondary"
1;1;1;3;"Men";25;"1";"Secondary"
2;1;1;4;"Men";58;"1";"Tertiary"
0;0;0;0;"Women";56;"0";"Tertiary"
1;0;0;1;"Women";56;"0";"Secondary"
0;0;0;0;"Women";20;"0";"Secondary"
0;0;0;0;"Men";53;"0";"Secondary"
1;1;NA;NA;"Women";42;NA;NA
1;0;0;1;"Men";57;"0";"Secondary"
0;0;0;0;"Men";19;"0";"Secondary"
0;0;0;0;"Women";23;"0";"Secondary"
2;0;0;2;"Women";77;"0";"Secondary"
1;0;0;1;"Women";18;"0";"Secondary"
0;1;1;2;"Men";17;"0";"Secondary"
3;0;1;4;"Women";16;"0";"Primary"
1;0;0;1;"Men";37;"1";"Secondary"
2;1;0;3;"Men";72;"1";"Secondary"
1;0;0;1;"Men";80;"0";"Secondary"
2;0;0;2;"Men";60;"1";"Secondary"
0;0;0;0;"Women";36;"1";"Tertiary"
2;0;1;3;"Women";55;"0";"Secondary"
1;0;0;1;"Women";50;"0";"Tertiary"
2;0;0;2;"Women";62;"0";"Tertiary"
1;0;0;1;"Women";46;"1";"Tertiary"
0;0;0;0;"Men";40;"1";"Secondary"
2;1;1;4;"Men";65;"0";"Secondary"
3;0;0;3;"Women";53;"1";"Secondary"
2;1;0;3;"Women";71;"0";"Secondary"
1;1;0;2;"Women";37;"0";"Secondary"
1;1;1;3;"Men";18;"0";"Secondary"
1;0;0;1;"Men";38;"0";"Secondary"
2;2;1;5;"Men";19;"0";"Secondary"
3;0;0;3;"Men";56;"1";"Tertiary"
2;1;0;3;"Women";43;"0";"Tertiary"
0;0;0;0;"Men";49;"0";"Tertiary"
0;0;0;0;"Men";50;"0";"Secondary"
0;0;0;0;"Men";39;"0";"Secondary"
2;0;0;2;"Women";55;"1";"Primary"
0;0;0;0;"Women";25;"0";"Secondary"
2;1;1;4;"Men";26;"1";"Secondary"
1;1;1;3;"Women";42;"0";"Secondary"
1;1;0;2;"Men";43;"0";"Tertiary"
0;0;0;0;"Women";69;"0";"Secondary"
2;0;0;2;"Women";60;"0";"Secondary"
1;0;0;1;"Men";37;"1";"Secondary"
2;0;0;2;"Men";73;"1";"Primary"
0;0;0;0;"Women";59;"0";"Secondary"
2;1;0;3;"Men";78;"0";"Tertiary"
1;0;0;1;"Women";72;"0";"Primary"
2;0;1;3;"Men";31;"1";"Secondary"
0;0;0;0;"Men";57;"0";"Secondary"
0;0;0;0;"Men";25;"0";"Secondary"
1;1;1;3;"Women";59;"0";"Primary"
1;1;0;2;"Women";63;"0";"Primary"
2;1;2;5;"Men";72;"1";"Primary"
1;1;1;3;"Men";55;"1";"Secondary"
1;1;1;3;"Women";76;"0";"Primary"
2;2;0;4;"Men";17;"1";"Secondary"
1;1;1;3;"Men";16;"0";"Secondary"
1;0;1;2;"Women";25;"0";"Secondary"
1;2;0;3;"Women";66;"0";"Secondary"
3;0;1;4;"Men";50;"0";"Secondary"
0;0;0;0;"Men";68;"0";"Primary"
2;0;1;3;"Women";39;"0";"Secondary"
1;0;0;1;"Men";56;"0";"Tertiary"
1;0;0;1;"Men";68;"0";"Primary"
NA;NA;NA;NA;"Men";88;NA;"Primary"
1;1;1;3;"Women";53;"0";"Secondary"
NA;0;NA;NA;"Men";20;"0";"Secondary"
2;1;0;3;"Women";39;"0";"Secondary"
1;1;0;2;"Men";39;"0";"Tertiary"
1;0;0;1;"Men";58;"1";"Tertiary"
2;1;2;5;"Men";21;"0";"Tertiary"
0;0;0;0;"Women";66;"0";"Secondary"
1;0;0;1;"Men";57;"1";"Primary"
1;1;0;2;"Men";60;"1";"Secondary"
2;1;0;3;"Men";62;"1";"Primary"
2;0;0;2;"Men";42;"0";"Secondary"
1;1;1;3;"Women";54;"0";"Secondary"
2;0;0;2;"Women";73;"0";"Secondary"
2;0;0;2;"Women";50;"1";"Secondary"
1;1;1;3;"Men";40;"0";"Secondary"
3;0;1;4;"Women";17;"0";"Secondary"
3;1;0;4;"Men";69;"1";"Primary"
1;1;0;2;"Women";40;"1";"Tertiary"
0;0;0;0;"Men";70;"0";"Primary"
1;1;1;3;"Men";27;"0";"Secondary"
2;0;0;2;"Women";44;"0";"Secondary"
2;0;0;2;"Men";35;"1";"Secondary"
1;0;0;1;"Men";73;"1";"Secondary"
0;0;0;0;"Women";29;"0";"Secondary"
2;0;0;2;"Women";37;"1";"Tertiary"
2;1;0;3;"Men";55;"1";"Secondary"
1;0;0;1;"Men";54;"0";"Tertiary"
0;0;0;0;"Women";37;"0";"Secondary"
0;0;0;0;"Women";60;"0";"Secondary"
1;1;1;3;"Men";86;"0";"Primary"
0;1;1;2;"Men";21;"0";"Secondary"
2;1;0;3;"Men";46;"1";"Secondary"
2;0;0;2;"Men";55;"1";"Tertiary"
2;0;0;2;"Women";47;"0";"Tertiary"
1;0;1;2;"Women";28;"0";"Secondary"
1;0;0;1;"Women";70;"0";"Primary"
3;1;0;4;"Men";69;"1";"Tertiary"
2;0;0;2;"Women";54;"1";"Tertiary"
1;0;2;3;"Men";25;"1";"Secondary"
2;0;0;2;"Men";34;"1";"Tertiary"
2;0;1;3;"Women";48;"1";"Secondary"
0;0;0;0;"Women";34;"0";"Tertiary"
0;0;0;0;"Men";37;"0";"Secondary"
1;1;1;3;"Women";18;"0";"Secondary"
1;1;0;2;"Women";19;"0";"Secondary"
0;0;0;0;"Women";71;"0";"Tertiary"
1;0;0;1;"Men";37;"1";"Secondary"
1;1;1;3;"Women";36;"0";"Secondary"
1;0;0;1;"Men";36;"0";"Secondary"
0;0;0;0;"Men";35;"0";"Secondary"
0;0;1;1;"Women";55;"0";"Secondary"
1;0;0;1;"Men";45;"0";"Secondary"
1;0;0;1;"Women";60;"1";"Secondary"
1;0;1;2;"Men";44;"0";"Primary"
0;0;0;0;"Women";52;"0";"Secondary"
1;0;0;1;"Men";48;"1";"Secondary"
2;0;1;3;"Men";16;"0";"Secondary"
2;0;0;2;"Men";58;"1";"Secondary"
0;0;0;0;"Women";61;"0";"Tertiary"
2;1;0;3;"Men";30;"1";"Tertiary"
0;0;0;0;"Women";40;"1";"Secondary"
2;0;0;2;"Women";49;"0";"Secondary"
2;0;0;2;"Men";20;"0";"Secondary"
3;1;1;5;"Men";33;"1";"Secondary"
3;1;1;5;"Women";67;"1";"Primary"
0;0;0;0;"Men";25;"0";"Secondary"
1;0;0;1;"Women";58;"0";"Primary"
1;0;0;1;"Men";70;"0";"Secondary"
1;0;0;1;"Men";45;"1";"Tertiary"
0;0;0;0;"Men";52;"0";"Tertiary"
0;1;0;1;"Women";38;"0";"Secondary"
1;0;0;1;"Women";49;"0";"Secondary"
0;0;0;0;"Women";81;"0";"Primary"
3;0;0;3;"Women";26;"1";"Tertiary"
1;0;0;1;"Women";66;"0";"Secondary"
0;0;0;0;"Men";59;"0";"Secondary"
1;2;1;4;"Women";17;"0";"Secondary"
2;1;0;3;"Women";22;"1";"Secondary"
2;1;0;3;"Men";31;"1";"Tertiary"
2;1;0;3;"Men";18;"0";"Secondary"
2;0;0;2;"Men";61;"1";"Primary"
0;0;0;0;"Men";17;"0";"Primary"
1;0;0;1;"Women";44;"1";"Secondary"
1;1;0;2;"Women";41;"1";"Tertiary"
2;2;1;5;"Men";28;"0";"Secondary"
2;2;0;4;"Men";75;"0";"Primary"
0;0;0;0;"Men";72;"0";"Tertiary"
0;0;0;0;"Men";43;"1";"Tertiary"
2;0;0;2;"Men";23;"1";"Secondary"
2;0;0;2;"Men";55;"0";"Secondary"
1;0;0;1;"Women";68;"0";"Primary"
0;0;0;0;"Women";53;"0";"Secondary"
2;1;0;3;"Women";92;"0";"Tertiary"
1;1;0;2;"Men";52;"1";"Secondary"
2;1;0;3;"Men";37;"0";"Secondary"
1;2;0;3;"Women";74;"0";"Secondary"
1;0;0;1;"Women";51;"1";"Secondary"
0;0;0;0;"Men";67;"0";"Secondary"
2;1;1;4;"Men";31;"0";"Secondary"
0;0;0;0;"Men";77;"0";"Primary"
0;0;0;0;"Women";72;"0";"Primary"
1;0;0;1;"Men";39;"0";"Secondary"
0;0;0;0;"Women";40;"0";"Secondary"
1;1;1;3;"Men";67;"0";"Primary"
2;0;1;3;"Men";19;"1";"Secondary"
2;1;2;5;"Men";85;"0";"Secondary"
3;3;0;6;"Men";23;"0";"Secondary"
1;0;0;1;"Men";32;"0";"Secondary"
1;0;0;1;"Women";29;"1";"Secondary"
3;0;0;3;"Women";84;"0";"Primary"
2;0;0;2;"Men";30;"0";"Secondary"
2;0;0;2;"Women";25;"0";"Secondary"
0;1;0;1;"Women";45;"0";"Secondary"
2;2;1;5;"Women";29;"1";"Secondary"
3;0;0;3;"Women";42;"1";"Secondary"
1;0;0;1;"Men";34;"0";"Secondary"
1;0;0;1;"Men";44;"1";"Secondary"
2;2;0;4;"Women";29;"1";"Secondary"
2;0;0;2;"Men";75;"0";"Primary"
2;0;0;2;"Women";63;"1";"Tertiary"
NA;NA;NA;NA;"Women";84;NA;"Primary"
3;0;0;3;"Women";35;"1";"Secondary"
2;1;0;3;"Women";20;"0";"Secondary"
2;0;1;3;"Women";56;"1";"Tertiary"
NA;1;0;NA;"Women";18;"0";"Secondary"
2;2;0;4;"Men";15;"0";"Primary"
3;1;0;4;"Men";36;"1";"Secondary"
2;1;0;3;"Men";45;"0";"Tertiary"
1;1;0;2;"Men";46;NA;"Secondary"
0;0;0;0;"Women";49;"0";"Tertiary"
1;0;0;1;"Men";33;"0";"Secondary"
2;0;0;2;"Women";53;"0";"Secondary"
1;1;0;2;"Men";56;"1";"Tertiary"
1;0;0;1;"Men";51;"1";"Secondary"
0;0;0;0;"Women";49;"0";"Secondary"
1;0;0;1;"Men";30;"0";"Secondary"
2;1;1;4;"Men";15;"0";"Secondary"
0;0;0;0;"Men";43;"0";"Secondary"
2;0;0;2;"Men";38;"1";"Tertiary"
1;1;1;3;"Men";20;"0";"Secondary"
2;0;0;2;"Women";25;"0";"Tertiary"
1;1;0;2;"Men";37;"0";"Secondary"
2;0;0;2;"Men";40;"1";"Secondary"
NA;NA;NA;NA;"Women";83;"0";"Primary"
2;1;1;4;"Women";44;"0";"Secondary"
1;1;NA;NA;"Women";33;"0";"Secondary"
2;1;0;3;"Women";39;"0";"Secondary"
2;1;1;4;"Men";38;"1";"Secondary"
1;0;0;1;"Women";24;"0";"Secondary"
2;1;1;4;"Women";68;"0";"Secondary"
2;0;0;2;"Men";45;"0";"Primary"
2;0;0;2;"Women";55;"0";"Secondary"
2;2;0;4;"Men";36;"0";"Secondary"
1;1;0;2;"Women";40;"0";"Secondary"
2;0;0;2;"Women";59;"1";"Secondary"
1;0;0;1;"Women";27;"1";"Secondary"
2;1;1;4;"Women";78;"1";"Primary"
2;0;1;3;"Men";55;"0";"Tertiary"
2;1;1;4;"Men";15;"0";"Primary"
2;1;0;3;"Women";53;"1";"Secondary"
NA;2;0;NA;"Men";21;"0";"Secondary"
1;1;1;3;"Men";65;"0";"Secondary"
2;1;1;4;"Women";37;"0";"Secondary"
1;1;0;2;"Women";22;"0";"Secondary"
2;0;2;4;"Men";40;"1";"Secondary"
3;0;0;3;"Men";37;"0";"Secondary"
0;0;0;0;"Women";26;"0";"Secondary"
1;1;1;3;"Women";91;"0";"Primary"
1;0;0;1;"Men";17;"0";"Secondary"
1;1;0;2;"Men";71;"0";"Primary"
1;0;1;2;"Men";79;"0";"Primary"
2;0;0;2;"Men";80;"0";"Secondary"
1;1;0;2;"Women";35;"1";"Tertiary"
2;1;0;3;"Men";55;"1";"Secondary"
1;0;0;1;"Men";39;"0";"Secondary"
1;0;0;1;"Men";53;"0";"Secondary"
2;0;0;2;"Women";75;"0";"Primary"
2;0;0;2;"Men";51;"1";"Tertiary"
1;0;0;1;"Men";39;"1";"Secondary"
1;0;0;1;"Women";71;"0";"Primary"
2;1;1;4;"Women";24;"0";"Secondary"
1;0;0;1;"Men";63;"0";"Primary"
1;1;1;3;"Men";19;"0";"Secondary"
1;0;0;1;"Women";50;"0";"Tertiary"
1;1;0;2;"Women";27;"0";"Secondary"
0;0;0;0;"Men";53;"0";"Tertiary"
0;0;0;0;"Men";76;"0";"Primary"
NA;0;0;NA;"Women";60;"0";"Tertiary"
2;1;2;5;"Men";16;"0";"Secondary"
0;0;1;1;"Women";73;"0";"Primary"
2;2;0;4;"Men";30;"1";"Secondary"
1;1;1;3;"Women";29;"0";"Tertiary"
2;2;0;4;"Men";41;"1";"Secondary"
1;0;0;1;"Men";37;"1";"Secondary"
0;0;0;0;"Men";79;"0";"Primary"
1;1;1;3;"Women";42;"0";"Secondary"
0;0;0;0;"Women";35;"0";"Secondary"
1;0;0;1;"Women";47;"0";"Secondary"
2;0;0;2;"Women";60;"0";"Tertiary"
1;0;0;1;"Women";45;"0";"Secondary"
NA;0;0;NA;"Women";65;"0";"Primary"
0;0;0;0;"Women";46;"0";"Secondary"
NA;2;1;NA;"Men";15;"0";"Secondary"
3;0;0;3;"Women";54;"1";"Tertiary"
0;0;0;0;"Men";71;"1";"Secondary"
2;0;0;2;"Men";56;"1";"Primary"
2;0;0;2;"Women";60;"0";"Tertiary"
1;0;1;2;"Women";75;"0";"Tertiary"
1;0;0;1;"Men";53;"0";"Secondary"
1;0;0;1;"Men";56;"0";"Primary"
2;0;0;2;"Women";53;"1";"Secondary"
3;2;2;7;"Men";17;"0";"Primary"
1;1;1;3;"Women";32;"0";"Tertiary"
1;0;0;1;"Men";58;"0";"Secondary"
0;0;0;0;"Women";64;"0";"Primary"
1;1;1;3;"Women";17;"0";"Secondary"
1;1;1;3;"Women";65;"0";"Primary"
2;0;0;2;"Women";80;"1";"Secondary"
1;0;0;1;"Women";81;"1";"Primary"
1;0;0;1;"Men";45;"0";"Tertiary"
1;1;0;2;"Men";60;"0";"Secondary"
1;1;1;3;"Men";32;"1";"Secondary"
0;0;0;0;"Men";62;"0";"Secondary"
2;0;0;2;"Men";57;"1";"Tertiary"
0;0;0;0;"Women";85;"0";"Primary"
2;0;0;2;"Women";31;"0";"Secondary"
1;1;1;3;"Men";30;"1";"Secondary"
1;1;1;3;"Women";20;"0";"Secondary"
1;0;0;1;"Women";20;"0";"Secondary"
1;0;0;1;"Women";19;"0";"Secondary"
1;0;1;2;"Women";75;"0";"Primary"
1;0;0;1;"Women";50;"0";"Secondary"
0;0;0;0;"Men";16;"0";"Primary"
0;0;0;0;"Men";25;"1";"Tertiary"
1;1;0;2;"Men";41;"1";"Tertiary"
1;0;0;1;"Men";33;"0";"Tertiary"
2;0;0;2;"Men";55;"1";"Tertiary"
1;0;0;1;"Men";40;"0";"Tertiary"
3;0;1;4;"Men";46;"1";"Secondary"
2;0;0;2;"Men";41;"1";"Secondary"
0;0;0;0;"Women";84;"0";"Primary"
0;0;0;0;"Men";27;"1";"Secondary"
2;0;0;2;"Men";38;"1";"Secondary"
3;0;0;3;"Men";27;"1";"Secondary"
1;0;0;1;"Men";24;"0";"Secondary"
2;0;0;2;"Men";36;"0";"Secondary"
0;0;0;0;"Women";27;"0";"Tertiary"
3;2;1;6;"Women";29;"1";"Secondary"
0;0;0;0;"Men";54;"0";"Secondary"
0;0;0;0;"Men";48;"1";"Secondary"
1;1;1;3;"Men";22;"1";"Secondary"
0;0;0;0;"Women";51;"0";"Secondary"
2;1;1;4;"Women";45;"1";"Secondary"
2;1;1;4;"Men";50;"1";"Secondary"
1;0;0;1;"Women";40;"0";"Secondary"
1;0;1;2;"Men";60;"0";"Secondary"
0;0;0;0;"Men";63;"0";"Secondary"
0;1;0;1;"Men";24;"0";"Secondary"
2;1;2;5;"Men";20;"1";"Secondary"
0;0;0;0;"Women";64;"0";"Secondary"
0;0;0;0;"Women";39;"0";"Secondary"
1;0;0;1;"Men";52;"0";"Tertiary"
2;1;0;3;"Men";89;"0";"Primary"
1;0;0;1;"Men";38;"1";"Secondary"
1;0;0;1;"Men";29;"0";"Secondary"
2;0;0;2;"Women";42;"0";"Secondary"
1;1;1;3;"Men";47;"0";"Secondary"
0;0;0;0;"Women";56;"1";"Tertiary"
0;0;0;0;"Men";59;"0";"Tertiary"
2;0;0;2;"Women";74;"0";"Primary"
2;1;0;3;"Women";60;"0";"Secondary"
1;1;1;3;"Women";51;"1";"Tertiary"
2;1;1;4;"Men";63;"1";"Secondary"
0;0;0;0;"Women";50;"0";"Secondary"
0;0;1;1;"Men";17;"0";"Secondary"
1;0;0;1;"Women";69;"0";"Tertiary"
0;0;0;0;"Men";80;"0";"Secondary"
2;2;1;5;"Men";24;"0";"Tertiary"
1;0;1;2;"Men";47;"1";"Secondary"
1;0;0;1;"Men";71;"1";"Primary"
0;0;0;0;"Men";27;"0";"Secondary"
2;0;1;3;"Men";62;"1";"Primary"
2;1;1;4;"Women";29;NA;"Secondary"
1;1;0;2;"Men";67;"0";"Tertiary"
2;0;0;2;"Men";36;"1";"Secondary"
2;0;0;2;"Men";39;"1";"Secondary"
2;0;0;2;"Women";64;"0";"Primary"
NA;1;1;NA;"Men";76;"0";"Primary"
2;0;0;2;"Women";46;"0";"Secondary"
2;0;0;2;"Women";44;"1";"Tertiary"
3;0;0;3;"Men";57;"1";"Primary"
1;1;0;2;"Women";15;"0";"Primary"
1;1;0;2;"Women";24;"0";"Tertiary"
1;1;1;3;"Men";82;"0";"Primary"
3;1;0;4;"Men";57;"0";"Tertiary"
1;0;0;1;"Men";30;"0";"Tertiary"
1;0;0;1;"Women";35;"0";"Tertiary"
1;0;1;2;"Women";61;"0";"Secondary"
1;0;0;1;"Women";49;"1";"Secondary"
1;0;0;1;"Women";26;"1";"Tertiary"
0;0;0;0;"Women";82;"0";"Secondary"
1;0;0;1;"Men";41;"1";"Secondary"
1;0;0;1;"Men";49;"0";"Secondary"
2;0;0;2;"Men";52;"1";"Secondary"
0;0;0;0;"Women";33;"0";"Secondary"
2;1;1;4;"Women";44;"0";"Secondary"
1;0;0;1;"Men";48;"0";"Secondary"
3;2;1;6;"Men";46;"0";"Secondary"
2;0;0;2;"Women";76;"1";"Primary"
2;1;0;3;"Men";50;"0";"Secondary"
1;0;0;1;"Men";26;"0";"Secondary"
1;0;0;1;"Women";20;"0";"Secondary"
1;0;0;1;"Men";52;"0";"Secondary"
2;0;0;2;"Women";62;"0";"Tertiary"
2;2;0;4;"Men";25;"1";"Secondary"
1;0;1;2;"Men";18;"0";"Secondary"
2;0;0;2;"Men";29;"1";"Secondary"
2;0;0;2;"Women";33;"0";"Tertiary"
2;0;1;3;"Men";20;"0";"Secondary"
2;1;2;5;"Women";32;"0";"Tertiary"
2;0;0;2;"Men";54;"0";"Secondary"
3;1;2;6;"Men";16;"0";"Secondary"
1;0;0;1;"Women";45;"0";"Secondary"
0;0;0;0;"Women";60;"0";"Secondary"
1;0;0;1;"Women";27;"0";"Tertiary"
0;0;0;0;"Women";85;"0";"Primary"
2;2;1;5;"Men";31;"1";"Secondary"
2;0;0;2;"Women";18;"0";"Secondary"
0;0;0;0;"Men";47;"0";"Secondary"
0;0;0;0;"Men";29;"1";"Secondary"
0;0;0;0;"Men";40;"1";"Secondary"
2;0;0;2;"Women";61;"1";"Tertiary"
0;0;0;0;"Women";47;"0";"Tertiary"
1;0;1;2;"Women";25;"0";"Tertiary"
2;0;0;2;"Men";65;"0";"Primary"
0;0;0;0;"Women";52;"0";"Secondary"
1;0;0;1;"Men";27;"0";"Secondary"
2;0;0;2;"Women";59;"1";"Secondary"
0;0;0;0;"Men";53;"0";"Tertiary"
0;0;0;0;"Women";59;"0";"Tertiary"
1;1;1;3;"Women";42;"0";"Tertiary"
2;0;0;2;"Women";80;"0";"Secondary"
1;1;1;3;"Women";65;"1";"Tertiary"
1;1;1;3;"Men";75;"0";"Tertiary"
2;2;0;4;"Women";46;"0";"Secondary"
2;2;1;5;"Men";31;"0";"Secondary"
1;0;0;1;"Women";19;"0";"Secondary"
1;0;1;2;"Women";63;"0";"Secondary"
1;0;0;1;"Men";67;"1";"Primary"
2;0;0;2;"Men";52;"1";"Secondary"
1;0;0;1;"Women";59;"0";"Primary"
1;0;0;1;"Women";61;"0";"Tertiary"
2;1;0;3;"Men";15;"0";"Primary"
1;1;1;3;"Men";34;"0";"Secondary"
0;0;0;0;"Men";51;"0";"Tertiary"
2;1;1;4;"Men";53;"1";"Secondary"
2;0;0;2;"Women";63;"0";"Secondary"
0;0;0;0;"Women";63;"0";"Primary"
2;0;0;2;"Women";68;"1";"Secondary"
2;0;0;2;"Men";72;"1";"Primary"
2;2;1;5;"Men";20;"0";"Secondary"
0;0;0;0;"Men";38;"1";"Secondary"
1;1;1;3;"Men";16;"0";"Secondary"
2;1;1;4;"Men";17;"0";"Secondary"
2;0;1;3;"Men";37;"1";"Secondary"
1;0;0;1;"Women";40;"0";"Secondary"
1;0;0;1;"Women";34;"0";"Secondary"
1;0;0;1;"Women";59;"0";"Secondary"
1;0;0;1;"Men";45;"0";"Secondary"
0;0;0;0;"Women";56;"0";"Secondary"
1;1;0;2;"Women";58;"1";"Secondary"
1;1;1;3;"Men";54;"1";"Secondary"
1;1;0;2;"Men";44;"0";"Secondary"
2;2;1;5;"Men";22;"0";"Secondary"
0;0;0;0;"Women";52;"0";"Primary"
0;0;0;0;"Men";28;"0";"Secondary"
1;NA;NA;NA;"Women";49;"0";"Tertiary"
1;1;1;3;"Women";71;"0";"Primary"
2;0;0;2;"Women";46;"1";"Secondary"
0;0;0;0;"Women";42;"0";"Secondary"
2;0;1;3;"Men";56;"1";"Secondary"
1;0;0;1;"Men";50;"0";"Secondary"
1;0;1;2;"Women";39;"0";"Secondary"
1;0;0;1;"Women";56;"0";"Tertiary"
1;0;2;3;"Men";86;"0";"Primary"
2;0;0;2;"Women";33;"0";"Tertiary"
1;1;1;3;"Men";40;"0";NA
0;0;0;0;"Women";50;"0";"Tertiary"
1;0;0;1;"Women";44;"0";"Secondary"
2;1;1;4;"Men";42;"1";"Secondary"
2;0;0;2;"Men";58;"0";"Primary"
1;0;1;2;"Women";16;"0";"Secondary"
3;2;1;6;"Men";25;"0";"Secondary"
0;0;0;0;"Women";47;"0";"Secondary"
2;0;0;2;"Women";79;"1";"Secondary"
0;0;0;0;"Men";60;"0";"Secondary"
1;1;0;2;"Men";51;"1";"Secondary"
1;0;0;1;"Women";39;"1";"Secondary"
0;0;0;0;"Women";42;"0";"Secondary"
0;0;0;0;"Women";64;"0";"Secondary"
1;1;1;3;"Women";37;"0";"Secondary"
2;0;0;2;"Men";52;"1";"Secondary"
1;1;0;2;"Men";18;"0";"Secondary"
1;0;0;1;"Men";29;"0";"Tertiary"
1;0;0;1;"Men";34;"1";"Secondary"
1;0;0;1;"Women";75;"0";"Primary"
1;1;1;3;"Women";20;"0";"Secondary"
1;1;1;3;"Women";36;"0";"Secondary"
1;0;0;1;"Men";73;"0";"Primary"
2;1;0;3;"Men";71;"1";"Tertiary"
2;1;0;3;"Men";41;"1";"Secondary"
2;1;0;3;"Men";42;"1";"Secondary"
1;0;0;1;"Men";53;"1";"Tertiary"
1;0;1;2;"Men";18;"0";"Secondary"
0;0;0;0;"Women";47;"0";"Secondary"
1;0;1;2;"Men";48;"1";"Secondary"
3;0;0;3;"Men";52;"1";"Secondary"
1;1;0;2;"Men";31;"1";"Secondary"
3;1;1;5;"Men";16;"0";"Secondary"
0;0;0;0;"Women";43;"0";"Tertiary"
0;0;0;0;"Women";51;"0";"Secondary"
1;0;0;1;"Men";61;"0";"Secondary"
1;0;0;1;"Men";66;"0";"Secondary"
1;0;1;2;"Women";50;"1";"Secondary"
2;1;1;4;"Women";78;"0";"Primary"
1;1;1;3;"Women";58;"0";"Tertiary"
3;0;0;3;"Women";34;"0";"Secondary"
2;0;1;3;"Women";62;"0";"Secondary"
2;0;2;4;"Women";22;"0";"Tertiary"
2;0;0;2;"Men";35;"0";"Tertiary"
2;0;0;2;"Men";66;"0";"Primary"
0;1;1;2;"Women";16;"0";"Secondary"
NA;NA;NA;NA;"Women";86;"0";"Primary"
0;0;0;0;"Men";62;"1";"Tertiary"
2;0;0;2;"Men";60;"1";"Secondary"
1;1;2;4;"Men";73;"1";"Secondary"
0;0;0;0;"Men";77;"0";"Primary"
1;1;NA;NA;"Men";83;"1";"Primary"
1;0;0;1;"Women";48;"0";"Secondary"
1;0;0;1;"Women";87;"0";"Primary"
1;0;0;1;"Women";45;"0";"Secondary"
0;0;0;0;"Women";36;"0";"Tertiary"
0;1;0;1;"Men";41;"0";"Tertiary"
2;1;0;3;"Men";56;"1";"Primary"
2;2;0;4;"Men";49;"0";"Secondary"
1;1;1;3;"Women";67;"0";"Primary"
2;1;1;4;"Men";40;"1";"Secondary"
0;0;0;0;"Women";59;"0";"Secondary"
2;1;0;3;"Men";62;"0";"Primary"
1;2;1;4;"Women";16;"0";"Secondary"
0;0;0;0;"Men";42;"0";"Secondary"
2;0;0;2;"Men";59;"1";"Secondary"
2;2;0;4;"Men";23;"1";"Secondary"
1;0;1;2;"Men";20;"0";"Secondary"
1;0;0;1;"Women";45;"0";"Tertiary"
1;1;1;3;"Women";69;"0";"Secondary"
2;0;1;3;"Men";40;"1";"Secondary"
2;1;0;3;"Men";15;"0";"Primary"
1;0;1;2;"Women";20;"0";"Secondary"
0;0;0;0;"Men";49;"0";"Secondary"
1;1;0;2;"Men";31;"0";"Tertiary"
2;0;0;2;"Men";36;"1";"Secondary"
2;2;2;6;"Men";42;"1";"Tertiary"
0;0;0;0;"Men";65;"0";"Secondary"
2;1;0;3;"Women";52;"0";"Secondary"
0;0;0;0;"Women";37;"0";"Tertiary"
2;0;0;2;"Men";16;"0";"Secondary"
0;0;0;0;"Women";45;"0";"Tertiary"
0;0;0;0;"Women";54;"0";"Secondary"
1;0;0;1;"Women";46;"0";"Secondary"
0;0;0;0;"Men";55;"1";"Primary"
3;1;1;5;"Men";64;"1";"Secondary"
0;0;0;0;"Women";78;"0";"Primary"
1;0;0;1;"Men";30;"0";"Secondary"
1;0;1;2;"Men";34;"1";"Secondary"
3;0;0;3;"Women";58;"1";"Secondary"
2;0;0;2;"Men";30;"0";"Secondary"
2;0;1;3;"Men";43;"0";"Secondary"
1;1;1;3;"Men";22;"0";"Secondary"
0;0;0;0;"Women";60;"1";"Secondary"
1;0;1;2;"Men";67;"0";"Primary"
1;1;0;2;"Women";60;"0";"Tertiary"
2;1;0;3;"Women";30;"1";"Tertiary"
1;0;0;1;"Women";44;"0";"Secondary"
0;0;0;0;"Men";56;"0";"Primary"
1;1;0;2;"Women";38;"0";"Tertiary"
2;2;2;6;"Men";72;"0";"Tertiary"
2;0;0;2;"Men";45;"1";"Tertiary"
0;0;0;0;"Men";60;"0";"Secondary"
1;0;0;1;"Men";27;"1";"Secondary"
2;2;2;6;"Men";34;"0";"Secondary"
2;0;1;3;"Men";51;"1";"Secondary"
0;0;0;0;"Men";29;"0";"Secondary"
3;1;0;4;"Men";21;"1";"Secondary"
1;0;2;3;"Men";27;"0";"Secondary"
1;0;0;1;"Men";67;"0";"Secondary"
2;0;0;2;"Women";87;"0";"Tertiary"
0;0;0;0;"Women";72;"0";"Primary"
1;0;0;1;"Men";44;"1";"Secondary"
1;0;0;1;"Men";47;"1";"Tertiary"
2;0;2;4;"Men";24;"0";"Secondary"
2;1;1;4;"Women";44;"0";"Secondary"
2;1;0;3;"Men";56;"1";"Tertiary"
1;1;0;2;"Women";40;"0";"Tertiary"
1;0;0;1;"Women";27;"0";"Secondary"
1;0;0;1;"Women";34;"0";"Secondary"
0;0;0;0;"Women";27;"0";"Tertiary"
0;0;0;0;"Men";32;"0";"Secondary"
2;0;0;2;"Women";44;"0";"Secondary"
1;1;1;3;"Women";58;"0";"Tertiary"
0;0;1;1;"Men";18;"0";"Secondary"
1;0;1;2;"Women";67;"0";"Tertiary"
1;1;1;3;"Women";58;"0";"Secondary"
0;1;1;2;"Men";17;"0";"Secondary"
1;1;0;2;"Women";63;"0";"Secondary"
0;1;0;1;"Men";20;"0";"Secondary"
1;1;1;3;"Men";60;"0";"Secondary"
1;0;0;1;"Men";48;"1";"Secondary"
1;1;1;3;"Women";29;"0";"Secondary"
3;1;1;5;"Men";37;"1";"Secondary"
0;0;0;0;"Men";49;"1";"Secondary"
2;0;1;3;"Men";29;"0";"Secondary"
1;0;0;1;"Men";47;"0";"Secondary"
1;1;1;3;"Women";29;"0";"Secondary"
3;1;1;5;"Men";24;"0";"Secondary"
2;0;0;2;"Men";40;"1";"Secondary"
2;1;0;3;"Men";78;"1";"Secondary"
1;0;0;1;"Women";41;NA;"Tertiary"
1;1;1;3;"Men";24;"1";"Tertiary"
2;1;0;3;"Men";43;"0";"Secondary"
2;1;0;3;"Men";88;"1";"Tertiary"
0;0;0;0;"Women";63;"0";"Tertiary"
2;0;0;2;"Women";22;"0";"Secondary"
1;1;1;3;"Women";79;"0";"Secondary"
1;0;1;2;"Men";72;"0";"Primary"
2;0;0;2;"Men";45;"0";"Tertiary"
0;0;0;0;"Men";54;"0";"Primary"
0;0;0;0;"Men";38;"0";"Tertiary"
NA;0;0;NA;"Women";18;"0";"Secondary"
1;0;0;1;"Women";33;"0";"Tertiary"
1;1;0;2;"Men";22;"0";"Secondary"
2;1;1;4;"Women";66;"0";"Primary"
1;0;0;1;"Men";37;"0";"Secondary"
NA;1;NA;NA;"Men";53;"0";"Secondary"
2;0;0;2;"Women";57;"0";"Secondary"
1;0;0;1;"Men";34;"1";"Tertiary"
1;0;0;1;"Men";69;"0";"Primary"
2;0;0;2;"Women";40;"0";"Secondary"
1;1;1;3;"Women";34;"1";"Secondary"
1;0;0;1;"Women";42;"0";"Secondary"
2;0;0;2;"Men";50;"1";"Secondary"
1;0;0;1;"Women";71;"0";"Tertiary"
1;1;1;3;"Women";20;"0";"Secondary"
0;0;0;0;"Women";58;"0";"Secondary"
1;0;0;1;"Men";44;"1";"Secondary"
3;0;0;3;"Men";67;"1";"Primary"
0;0;0;0;"Women";34;"0";"Tertiary"
0;0;0;0;"Women";54;"0";"Tertiary"
0;0;0;0;"Women";77;"0";"Primary"
1;0;0;1;"Men";52;"0";"Secondary"
2;0;0;2;"Women";16;NA;"Secondary"
2;0;0;2;"Women";20;"0";"Secondary"
2;0;0;2;"Men";40;"1";"Secondary"
0;0;0;0;"Men";70;"0";"Primary"
1;1;0;2;"Men";40;"0";"Tertiary"
3;1;0;4;"Men";31;"1";"Secondary"
2;0;1;3;"Women";25;"0";"Tertiary"
0;0;0;0;"Women";37;"0";"Secondary"
2;1;0;3;"Men";41;"0";"Secondary"
1;0;0;1;"Men";35;"0";"Tertiary"
1;0;0;1;"Women";16;"0";"Secondary"
3;0;0;3;"Men";65;"1";"Primary"
1;0;0;1;"Women";49;"0";"Secondary"
2;0;0;2;"Women";53;"0";"Secondary"
1;0;0;1;"Women";16;"0";"Secondary"
2;1;0;3;"Women";55;"1";"Secondary"
2;1;0;3;"Women";32;"0";"Tertiary"
2;0;1;3;"Men";41;"0";"Tertiary"
1;2;0;3;"Men";17;"0";"Secondary"
2;1;1;4;"Men";60;"0";"Secondary"
1;0;2;3;"Men";90;"0";"Primary"
1;1;1;3;"Men";49;"0";"Secondary"
0;0;0;0;"Women";85;"0";"Primary"
1;0;0;1;"Men";56;"0";"Secondary"
1;1;1;3;"Men";20;"0";"Secondary"
1;0;0;1;"Men";63;"0";"Tertiary"
0;0;0;0;"Women";72;"0";"Primary"
0;0;0;0;"Women";64;"0";"Secondary"
2;0;0;2;"Men";57;"0";"Primary"
2;0;0;2;"Women";35;"0";"Secondary"
NA;1;1;NA;"Men";82;"0";"Primary"
0;0;0;0;"Men";70;"0";"Primary"
1;1;0;2;"Men";20;"0";"Secondary"
2;1;0;3;"Men";32;"0";"Secondary"
2;0;0;2;"Women";59;"1";"Secondary"
2;1;0;3;"Women";36;"1";"Secondary"
2;1;0;3;"Men";65;"1";"Secondary"
1;1;1;3;"Women";30;"1";"Tertiary"
1;1;2;4;"Women";27;"0";"Secondary"
0;1;0;1;"Men";68;"1";"Primary"
1;1;0;2;"Women";83;"0";"Secondary"
0;0;0;0;"Women";26;"0";"Secondary"
2;1;0;3;"Women";44;"1";"Tertiary"
1;1;1;3;"Women";15;"0";"Primary"
NA;0;0;NA;"Women";84;"0";"Primary"
1;1;0;2;"Men";63;"0";"Secondary"
3;0;0;3;"Men";74;"0";"Primary"
1;0;1;2;"Women";35;"0";"Secondary"
2;0;0;2;"Women";71;"0";"Primary"
0;0;0;0;"Women";43;"0";"Tertiary"
3;0;0;3;"Women";57;"0";"Tertiary"
2;1;0;3;"Women";47;"1";"Secondary"
1;0;0;1;"Women";46;"0";"Tertiary"
0;0;0;0;"Men";68;"0";"Tertiary"
0;0;1;1;"Women";45;"0";"Secondary"
2;0;0;2;"Women";46;"0";"Secondary"
1;0;0;1;"Women";48;"0";"Secondary"
1;0;0;1;"Women";48;"0";"Tertiary"
0;0;0;0;"Women";39;"0";"Tertiary"
2;1;1;4;"Women";44;"0";"Secondary"
1;0;0;1;"Women";43;"0";"Tertiary"
1;0;0;1;"Women";32;"1";"Tertiary"
1;0;1;2;"Men";67;"0";"Tertiary"
1;0;0;1;"Men";64;"0";"Secondary"
2;0;0;2;"Men";78;"0";"Primary"
0;0;0;0;"Men";58;"0";"Secondary"
0;0;0;0;"Women";38;"0";"Secondary"
2;0;0;2;"Men";64;NA;"Secondary"
2;0;0;2;"Men";48;"1";"Tertiary"
0;0;0;0;"Women";52;"0";"Secondary"
2;0;0;2;"Men";64;"0";"Tertiary"
0;0;0;0;"Women";32;"0";"Tertiary"
2;2;1;5;"Men";69;"1";"Secondary"
0;0;0;0;"Women";43;"0";"Secondary"
1;1;1;3;"Women";69;"0";"Primary"
2;1;1;4;"Women";35;"1";"Secondary"
2;1;0;3;"Women";41;"0";"Secondary"
1;0;0;1;"Men";52;"1";"Tertiary"
0;0;0;0;"Women";73;"0";"Primary"
0;0;0;0;"Women";49;"0";"Tertiary"
1;0;0;1;"Women";69;"1";"Tertiary"
0;0;0;0;"Women";32;"0";NA
2;2;1;5;"Men";43;"1";"Secondary"
1;0;0;1;"Men";54;"1";"Secondary"
0;0;0;0;"Women";60;"0";"Secondary"
3;2;3;8;"Men";25;"1";"Secondary"
0;0;2;2;"Women";24;"0";"Tertiary"
1;1;1;3;"Women";29;"0";"Secondary"
2;1;0;3;"Women";37;"0";"Secondary"
0;0;0;0;"Men";75;"0";"Secondary"
NA;1;NA;NA;"Women";15;"0";"Secondary"
0;0;0;0;"Women";31;"0";"Secondary"
2;0;0;2;"Women";60;"0";"Secondary"
2;0;0;2;"Men";49;"0";"Secondary"
0;1;0;1;"Women";17;"0";"Secondary"
1;0;0;1;"Women";64;"0";"Tertiary"
0;0;1;1;"Women";17;"0";"Secondary"
2;0;0;2;"Women";25;"1";"Secondary"
3;0;0;3;"Men";53;"0";"Tertiary"
0;0;0;0;"Women";57;"0";"Primary"
2;0;2;4;"Women";55;"0";"Secondary"
2;0;0;2;"Men";45;"1";"Secondary"
1;2;1;4;"Men";17;"0";"Secondary"
3;2;0;5;"Women";24;"0";"Secondary"
2;0;0;2;"Men";47;"1";"Secondary"
1;0;0;1;"Women";67;"0";"Tertiary"
1;1;1;3;"Men";61;"0";"Secondary"
1;0;0;1;"Men";17;"0";"Secondary"
2;1;1;4;"Men";60;"1";"Tertiary"
2;0;0;2;"Men";28;"1";"Secondary"
2;1;1;4;"Women";24;"1";"Secondary"
2;0;0;2;"Women";39;"0";"Tertiary"
1;0;0;1;"Women";21;"0";"Secondary"
2;2;1;5;"Women";19;"0";"Secondary"
2;0;1;3;"Women";77;"0";"Tertiary"
1;0;0;1;"Women";47;"1";"Secondary"
1;0;0;1;"Men";65;"0";"Primary"
1;0;0;1;"Women";85;"0";"Primary"
2;0;0;2;"Women";52;"1";"Tertiary"
0;0;0;0;"Women";17;"0";"Secondary"
0;0;0;0;"Women";43;"0";"Tertiary"
2;1;0;3;"Men";30;"1";"Secondary"
1;0;1;2;"Women";40;"0";"Secondary"
1;0;0;1;"Women";18;"0";"Secondary"
2;1;1;4;"Men";19;"1";"Secondary"
1;1;0;2;"Women";54;"0";"Secondary"
1;0;0;1;"Men";53;"1";NA
2;0;0;2;"Women";53;"1";"Tertiary"
0;0;0;0;"Men";33;"0";"Tertiary"
1;1;0;2;"Men";46;"1";"Secondary"
1;1;1;3;"Men";86;"0";"Primary"
1;0;0;1;"Men";71;"0";"Primary"
2;0;0;2;"Women";45;"1";"Secondary"
0;0;0;0;"Women";52;"0";"Secondary"
1;0;0;1;"Men";37;"0";"Primary"
1;1;0;2;"Women";76;"0";"Primary"
2;2;0;4;"Men";36;"1";"Tertiary"
1;1;1;3;"Men";30;"0";"Secondary"
1;1;1;3;"Women";61;"0";"Secondary"
3;0;0;3;"Men";73;"1";"Primary"
2;1;0;3;"Men";51;"1";"Secondary"
1;0;0;1;"Men";27;"0";"Secondary"
0;1;1;2;"Women";24;"0";"Secondary"
0;0;0;0;"Women";46;"0";"Tertiary"
1;0;0;1;"Men";31;"0";"Tertiary"
0;0;0;0;"Women";60;"0";"Secondary"
1;0;0;1;"Men";76;"0";"Primary"
1;0;0;1;"Women";57;"0";"Tertiary"
0;1;0;1;"Men";57;"0";"Secondary"
1;0;0;1;"Women";69;"0";"Primary"
2;0;0;2;"Men";57;"1";"Secondary"
0;0;0;0;"Women";52;"0";"Secondary"
1;0;0;1;"Men";67;"1";"Primary"
2;0;1;3;"Women";37;"1";"Secondary"
0;1;1;2;"Men";15;"0";"Primary"
1;0;0;1;"Men";30;"1";"Tertiary"
2;1;1;4;"Women";41;"0";"Tertiary"
1;1;0;2;"Men";25;"1";"Secondary"
1;1;0;2;"Women";60;"0";"Secondary"
0;0;0;0;"Men";63;"0";"Secondary"
2;0;0;2;"Men";44;"0";"Secondary"
1;0;0;1;"Men";33;"0";"Secondary"
1;0;0;1;"Women";50;"0";"Tertiary"
2;0;0;2;"Men";64;"1";"Tertiary"
1;1;0;2;"Men";59;"1";"Tertiary"
2;0;0;2;"Women";50;"0";"Tertiary"
1;0;0;1;"Men";78;"1";"Primary"
2;0;0;2;"Women";38;"0";"Tertiary"
0;0;0;0;"Men";69;"0";"Tertiary"
2;0;1;3;"Women";61;"0";"Secondary"
0;0;0;0;"Women";41;"1";"Secondary"
0;0;0;0;"Women";21;"0";"Secondary"
2;0;0;2;"Men";46;"0";"Secondary"
2;2;0;4;"Men";32;"0";"Secondary"
0;0;0;0;"Men";29;"0";"Tertiary"
1;0;0;1;"Women";71;"0";"Secondary"
0;0;0;0;"Men";24;"0";"Tertiary"
2;2;1;5;"Women";22;"0";"Secondary"
2;1;1;4;"Men";45;"1";"Secondary"
2;0;0;2;"Women";43;"0";"Secondary"
2;0;1;3;"Men";17;"1";"Secondary"
0;0;0;0;"Men";42;"0";"Secondary"
0;0;0;0;"Men";39;"0";"Tertiary"
3;1;1;5;"Men";66;"1";"Secondary"
1;0;0;1;"Women";58;"1";"Secondary"
1;1;0;2;"Women";27;"0";"Tertiary"
1;0;1;2;"Men";33;"0";"Secondary"
1;0;0;1;"Men";19;"0";"Primary"
2;0;0;2;"Men";40;"0";"Secondary"
2;0;0;2;"Women";53;"1";"Tertiary"
1;1;1;3;"Women";36;"0";"Secondary"
1;0;0;1;"Women";39;"0";"Secondary"
2;0;0;2;"Women";28;"0";"Tertiary"
0;0;0;0;"Men";27;"0";"Secondary"
1;0;0;1;"Women";15;"0";"Secondary"
2;1;0;3;"Men";33;"1";"Secondary"
1;0;0;1;"Men";31;"1";"Secondary"
1;0;1;2;"Women";21;"0";"Secondary"
2;0;0;2;"Men";53;"1";"Tertiary"
0;0;0;0;"Men";82;"0";"Primary"
2;1;0;3;"Men";41;"1";"Tertiary"
0;0;0;0;"Women";52;"0";"Secondary"
2;0;2;4;"Men";26;"0";"Secondary"
2;1;1;4;"Men";51;"0";"Secondary"
1;0;0;1;"Women";56;"1";"Tertiary"
0;0;0;0;"Women";74;"0";"Secondary"
3;0;0;3;"Women";54;"1";"Secondary"
0;0;0;0;"Men";28;"0";"Tertiary"
1;0;0;1;"Women";79;"0";"Primary"
2;0;1;3;"Men";17;"0";"Primary"
1;0;0;1;"Women";34;"0";"Tertiary"
2;0;0;2;"Men";72;"1";"Primary"
1;0;0;1;"Women";56;"0";"Primary"
0;0;0;0;"Men";69;"0";"Secondary"
2;0;0;2;"Women";56;"1";"Primary"
2;1;1;4;"Men";16;"0";"Secondary"
1;0;0;1;"Men";43;"1";"Tertiary"
2;0;0;2;"Men";64;"0";"Primary"
2;0;1;3;"Women";15;NA;"Primary"
1;0;0;1;"Women";62;"0";"Tertiary"
1;0;0;1;"Women";36;"0";"Secondary"
2;0;0;2;"Women";43;"1";"Tertiary"
2;0;0;2;"Women";59;"1";"Secondary"
2;0;0;2;"Men";60;"0";"Secondary"
2;0;0;2;"Women";29;"1";"Tertiary"
0;0;0;0;"Men";67;"0";"Secondary"
2;1;0;3;"Men";27;"1";"Secondary"
2;0;0;2;"Women";28;"0";"Secondary"
1;0;0;1;"Women";81;"0";"Primary"
1;0;0;1;"Men";26;"0";"Secondary"
3;3;1;7;"Women";20;NA;"Secondary"
2;1;1;4;"Men";47;"1";"Secondary"
2;2;2;6;"Women";33;"1";"Secondary"
0;0;0;0;"Women";66;"0";"Secondary"
0;0;0;0;"Men";41;"0";"Secondary"
1;1;1;3;"Men";20;"0";"Secondary"
1;0;0;1;"Women";57;"0";"Secondary"
0;0;0;0;"Men";85;"1";"Primary"
2;0;1;3;"Women";16;"0";"Secondary"
1;0;0;1;"Men";48;"1";"Secondary"
2;2;0;4;"Women";43;"1";"Tertiary"
0;0;1;1;"Women";37;"0";"Tertiary"
0;0;0;0;"Women";42;"0";"Secondary"
1;0;0;1;"Men";39;"0";"Tertiary"
1;0;0;1;"Women";18;"0";"Secondary"
2;1;0;3;"Men";51;"1";"Secondary"
1;0;1;2;"Men";19;"1";"Secondary"
0;1;1;2;"Women";52;"0";"Secondary"
2;0;0;2;"Women";63;"1";"Tertiary"
1;0;1;2;"Women";68;"0";"Primary"
2;0;1;3;"Men";31;"0";"Secondary"
0;1;1;2;"Women";66;"0";"Secondary"
0;0;0;0;"Men";30;"0";"Secondary"
0;0;0;0;"Men";75;"0";"Tertiary"
0;0;0;0;"Men";20;"1";"Secondary"
1;1;0;2;"Men";78;"0";"Primary"
1;1;1;3;"Women";42;"0";"Secondary"
1;0;0;1;"Women";72;"0";"Tertiary"
0;0;0;0;"Men";55;"0";"Tertiary"
2;1;0;3;"Women";70;"0";"Primary"
1;0;0;1;"Men";71;"1";"Primary"
2;0;0;2;"Men";77;"0";"Primary"
2;2;0;4;"Women";42;"0";"Secondary"
2;2;1;5;"Men";51;"1";"Primary"
1;0;1;2;"Women";30;"0";"Secondary"
1;0;0;1;"Men";73;"0";"Primary"
1;1;1;3;"Women";55;"0";"Primary"
0;0;0;0;"Women";67;"0";"Tertiary"
2;1;0;3;"Men";38;"1";"Tertiary"
1;0;0;1;"Men";63;"1";"Primary"
2;1;0;3;"Men";36;"0";"Secondary"
2;0;0;2;"Women";69;"0";"Tertiary"
2;0;0;2;"Women";56;"0";"Secondary"
0;0;1;1;"Women";74;"0";"Secondary"
3;1;0;4;"Women";23;"0";"Secondary"
1;1;1;3;"Men";46;"0";"Tertiary"
2;0;0;2;"Women";40;"1";"Tertiary"
1;0;0;1;"Men";15;"0";"Primary"
1;0;1;2;"Women";18;"0";"Secondary"
1;0;1;2;"Women";35;"0";"Secondary"
1;0;0;1;"Women";38;"0";"Tertiary"
2;1;0;3;"Women";38;"0";"Secondary"
0;0;0;0;"Men";52;"0";"Secondary"
0;0;0;0;"Women";63;"0";"Tertiary"
2;1;1;4;"Women";77;"0";"Primary"
2;0;1;3;"Men";85;"1";"Primary"
1;0;0;1;"Men";51;"0";"Tertiary"
2;1;0;3;"Women";41;"1";"Secondary"
3;0;0;3;"Men";66;"1";"Secondary"
0;1;0;1;"Women";15;"0";"Primary"
2;1;0;3;"Men";29;"0";"Secondary"
1;0;0;1;"Women";37;"0";"Secondary"
2;0;0;2;"Men";19;"1";"Secondary"
2;1;1;4;"Women";42;"1";"Secondary"
0;0;0;0;"Women";77;"0";"Secondary"
1;1;1;3;"Men";49;"1";"Secondary"
1;0;0;1;"Women";89;"0";"Primary"
0;0;0;0;"Women";53;"0";"Tertiary"
0;0;0;0;"Men";57;"0";"Secondary"
1;0;0;1;"Women";43;"0";"Secondary"
2;1;1;4;"Women";59;"0";"Tertiary"
1;0;0;1;"Women";42;"0";"Secondary"
2;1;0;3;"Men";70;"1";"Tertiary"
1;0;0;1;"Men";55;"1";"Secondary"
2;0;0;2;"Men";44;"1";"Secondary"
2;1;1;4;"Men";28;"1";"Secondary"
1;1;0;2;"Women";49;"0";"Tertiary"
2;0;0;2;"Men";64;"1";"Primary"
0;0;0;0;"Men";66;"1";"Secondary"
1;0;0;1;"Women";73;"0";"Primary"
0;0;0;0;"Men";32;"1";"Secondary"
2;0;0;2;"Men";15;"1";"Secondary"
1;1;0;2;"Women";21;"0";"Secondary"
1;0;0;1;"Men";77;"0";"Primary"
0;0;0;0;"Men";33;"1";"Secondary"
0;0;0;0;"Women";53;"0";"Secondary"
3;0;1;4;"Men";52;"0";"Secondary"
0;0;0;0;"Women";54;"0";"Secondary"
1;0;0;1;"Men";44;"0";"Secondary"
1;0;0;1;"Men";47;NA;"Tertiary"
1;1;1;3;"Men";17;"0";"Secondary"
0;0;0;0;"Men";22;"0";"Secondary"
0;0;0;0;"Men";70;"0";"Secondary"
1;1;0;2;"Women";38;"1";"Tertiary"
0;0;0;0;"Women";65;"0";"Tertiary"
1;1;1;3;"Men";70;"0";"Primary"
2;1;2;5;"Men";30;"1";"Secondary"
2;1;0;3;"Women";42;"0";"Tertiary"
2;1;1;4;"Men";40;"0";"Secondary"
1;0;0;1;"Men";74;"0";"Primary"
1;1;1;3;"Women";28;"0";"Secondary"
2;0;0;2;"Men";27;"0";"Tertiary"
2;1;1;4;"Women";74;"0";"Primary"
2;1;1;4;"Men";36;"1";"Secondary"
2;1;1;4;"Men";21;"0";"Secondary"
1;0;0;1;"Men";52;"0";"Secondary"
1;0;0;1;"Men";53;"0";"Tertiary"
1;1;0;2;"Women";32;"0";"Secondary"
1;1;1;3;"Women";74;"0";"Primary"
0;0;0;0;"Women";21;"1";"Secondary"
0;0;2;2;"Men";32;"0";"Tertiary"
0;0;0;0;"Men";29;"0";"Secondary"
2;1;0;3;"Women";38;"0";"Secondary"
NA;NA;NA;NA;"Women";93;"0";"Primary"
1;0;0;1;"Women";57;"0";"Secondary"
1;1;1;3;"Women";78;"0";"Primary"
0;0;0;0;"Men";65;"1";"Secondary"
2;0;2;4;"Women";28;"0";"Tertiary"
1;1;1;3;"Men";30;"0";"Tertiary"
1;1;1;3;"Men";23;"0";"Secondary"
2;0;0;2;"Women";55;"0";"Secondary"
0;0;0;0;"Women";94;"0";"Primary"
0;0;0;0;"Men";56;"0";"Secondary"
3;3;0;6;"Women";52;"1";"Secondary"
2;1;0;3;"Men";37;"1";"Secondary"
1;0;1;2;"Men";30;"0";"Secondary"
3;1;1;5;"Men";29;"1";"Secondary"
1;0;0;1;"Men";36;"0";"Tertiary"
1;1;0;2;"Men";49;"1";"Secondary"
2;0;0;2;"Men";74;"0";"Primary"
2;0;0;2;"Men";15;"0";"Secondary"
2;0;0;2;"Women";39;"1";"Tertiary"
2;0;0;2;"Women";45;"1";"Secondary"
1;1;1;3;"Men";32;"1";"Secondary"
2;2;2;6;"Women";26;"0";"Secondary"
2;1;0;3;"Women";28;"0";"Tertiary"
1;1;1;3;"Women";73;"0";"Primary"
1;1;1;3;"Women";73;"0";"Tertiary"
1;0;1;2;"Women";19;"0";"Secondary"
1;1;0;2;"Women";17;"1";"Secondary"
2;0;0;2;"Women";38;"1";"Secondary"
0;0;0;0;"Men";27;"1";"Secondary"
2;0;0;2;"Men";43;"1";"Secondary"
2;0;0;2;"Men";49;"1";"Secondary"
2;1;2;5;"Men";34;"1";"Secondary"
2;0;0;2;"Women";72;"0";"Tertiary"
1;1;NA;NA;"Men";30;"0";"Secondary"
2;0;0;2;"Women";28;"0";"Secondary"
1;0;2;3;"Women";59;"0";"Secondary"
0;0;0;0;"Men";44;"0";"Tertiary"
2;0;0;2;"Women";29;"1";"Tertiary"
1;1;0;2;"Men";61;"0";"Secondary"
1;0;0;1;"Women";58;"0";"Secondary"
0;0;0;0;"Women";56;"1";"Tertiary"
1;1;1;3;"Women";63;"0";"Secondary"
0;0;0;0;"Men";25;NA;"Secondary"
1;0;0;1;"Women";73;"0";"Primary"
1;0;0;1;"Women";15;"0";"Primary"
2;1;0;3;"Women";23;"0";"Secondary"
1;1;1;3;"Men";50;"0";"Secondary"
1;0;0;1;"Women";41;"0";"Secondary"
2;1;NA;NA;"Women";93;"1";"Primary"
1;0;0;1;"Men";73;"0";"Primary"
3;1;1;5;"Women";58;"1";"Primary"
2;0;0;2;"Men";38;"1";"Secondary"
2;1;3;6;"Women";35;"0";"Secondary"
2;0;0;2;"Women";81;"1";"Primary"
1;1;1;3;"Women";80;"0";"Primary"
0;1;0;1;"Women";48;"0";"Secondary"
0;0;0;0;"Women";45;"1";"Tertiary"
0;0;0;0;"Men";29;"0";"Tertiary"
1;0;0;1;"Women";54;"1";"Tertiary"
1;1;0;2;"Men";47;"1";"Tertiary"
2;1;0;3;"Women";31;"0";"Tertiary"
2;0;0;2;"Women";41;"0";"Secondary"
0;1;0;1;"Women";70;"0";"Primary"
1;0;0;1;"Women";58;"0";"Secondary"
0;0;0;0;"Women";35;"0";"Tertiary"
3;0;1;4;"Men";22;"1";"Secondary"
1;1;NA;NA;"Women";91;"0";"Primary"
2;1;0;3;"Men";81;"0";"Secondary"
1;0;0;1;"Men";54;"0";"Secondary"
0;1;0;1;"Women";36;"0";"Secondary"
1;1;0;2;"Women";19;"0";"Secondary"
1;1;0;2;"Women";49;"1";"Tertiary"
1;0;0;1;"Men";66;"0";"Secondary"
2;1;0;3;"Men";36;"1";"Tertiary"
0;0;0;0;"Women";66;"0";"Secondary"
0;0;0;0;"Men";60;"0";"Tertiary"
1;0;0;1;"Women";67;"1";"Primary"
2;0;0;2;"Men";40;"1";"Secondary"
0;0;0;0;"Women";76;"0";"Primary"
1;0;0;1;"Women";35;"1";"Tertiary"
0;0;0;0;"Men";69;"0";"Primary"
1;0;0;1;"Women";67;"0";"Tertiary"
1;0;0;1;"Women";28;"0";"Tertiary"
1;0;0;1;"Men";43;"1";"Tertiary"
2;1;1;4;"Women";57;"1";"Secondary"
1;2;1;4;"Women";22;"0";"Tertiary"
NA;0;0;NA;"Men";56;"1";"Tertiary"
0;0;0;0;"Women";57;"0";"Primary"
2;3;1;6;"Men";21;"0";"Secondary"
0;0;0;0;"Women";23;"0";"Secondary"
2;1;1;4;"Men";53;"0";"Secondary"
3;0;0;3;"Men";69;"1";"Secondary"
1;0;0;1;"Women";27;"0";"Secondary"
1;1;0;2;"Women";36;"0";"Tertiary"
1;0;0;1;"Men";65;"0";"Secondary"
0;0;0;0;"Men";54;"1";"Primary"
1;0;0;1;"Men";71;"0";"Primary"
0;0;0;0;"Men";60;"0";"Primary"
1;1;1;3;"Men";36;"1";"Secondary"
1;0;1;2;"Women";59;"0";"Tertiary"
2;1;1;4;"Women";80;"0";"Secondary"
2;2;0;4;"Men";29;"0";"Tertiary"
2;1;0;3;"Women";36;"1";"Secondary"
2;1;0;3;"Men";59;"0";"Secondary"
1;0;0;1;"Men";20;"0";"Secondary"
1;1;0;2;"Men";36;"1";"Tertiary"
0;0;0;0;"Men";53;"0";"Primary"
2;0;1;3;"Men";60;"0";"Primary"
2;1;0;3;"Men";41;"0";"Secondary"
2;0;0;2;"Women";38;"0";"Secondary"
0;0;0;0;"Men";37;"1";"Secondary"
1;1;1;3;"Men";75;"0";"Secondary"
2;1;1;4;"Men";21;"1";"Secondary"
2;1;0;3;"Men";24;"0";"Secondary"
1;1;1;3;"Women";22;"0";"Secondary"
1;1;0;2;"Women";47;"0";"Secondary"
1;0;0;1;"Men";37;"0";"Secondary"
NA;NA;NA;NA;"Women";89;NA;NA
1;0;0;1;"Women";17;"0";"Secondary"
1;0;0;1;"Women";76;"0";"Secondary"
2;1;1;4;"Women";24;"1";"Secondary"
2;0;0;2;"Men";75;"0";"Primary"
1;1;0;2;"Men";39;"0";"Tertiary"
