\relax 
\bibstyle{apacite}
\babel@aux{english}{}
\@writefile{lot}{\contentsline {table}{\numberline {1}{\ignorespaces OLS: Utbildningsniv\IeC {\r a}ns effekt p\IeC {\r a} inkomst}}{1}}
\newlabel{}{{1}{1}}
