\relax 
\bibstyle{apacite}
\@writefile{lot}{\contentsline {table}{\numberline {1}{\ignorespaces Inkomst (OLS)}}{1}}
\newlabel{}{{1}{1}}
\babel@aux{english}{}
\newlabel{}{{}{1}}
\@writefile{lot}{\contentsline {table}{\numberline {2}{\ignorespaces M\IeC {\r a}nadsl\IeC {\"o}n efter k\IeC {\"o}n och utbildning (OLS)}}{1}}
\newlabel{}{{}{2}}
\@writefile{lot}{\contentsline {table}{\numberline {3}{\ignorespaces M\IeC {\r a}nadsl\IeC {\"o}n efter k\IeC {\"o}n, utbildning och \IeC {\r a}lder (OLS)}}{2}}
