\relax 
\bibstyle{apacite}
\babel@aux{english}{}
\@writefile{lot}{\contentsline {table}{\numberline {1}{\ignorespaces Diskriminering p.g.a. sexuell orientering efter h\IeC {\"a}lsa}}{1}\protected@file@percent }
\newlabel{}{{1}{1}}
\@writefile{lot}{\contentsline {table}{\numberline {2}{\ignorespaces Effort/reward efter h\IeC {\"a}lsa}}{2}\protected@file@percent }
\newlabel{}{{2}{2}}
\@writefile{lot}{\contentsline {table}{\numberline {3}{\ignorespaces H\IeC {\"a}lsa efter effort/reward}}{3}\protected@file@percent }
\newlabel{}{{3}{3}}
